,Órgão,Valor do fornecedor
0,fundo municipal de assistência social,52185656.12000011
1,fundo municipal de saúde,2347419214.369994
2,fundo municipal dos direitos da pessoa idosa,22050.0
3,gabinete de projetos especiais,50386520.14
4,"secretaria de desenv. social, direitos humanos, juventude e políticas sobre drogas",27000.0
5,secretaria de educação,129944874.50000001
6,secretaria de governo e participação social,30000.0
7,secretaria de infraestrutura,373100.0
