,Nº Dispensa,"Anulação/ Revogação/ Retificação/
Suspensão",Órgão,Objeto,Local de Execução,"Data de Empenho/
Contrato",Data Vigência,CNPJ,Nome Fornecedor," Valor por Fornecedor
(R$) "," Valor Total Dispensa
(R$) "
0,8-2020,,FMS - FUNDO MUNICIPAL DE SAÚDE - FMS,"VENTILADOR DE TRANSPORTE, PARA ATENDER DEMANDA DO PLANO DE CONTIGÊNCIA COVID-19.",Rede Municipal de Saúde,24/03/2020,15/09/2020,01.298.443/0002-54 ,MAGNAMED TECNOLOGIA MEDICA SA,"117.000,00 ","117.000,00 "
1,9-2020,,FMS - FUNDO MUNICIPAL DE SAÚDE - FMS,"MONITOR MULTIPARAMÉTRICO DE TRANSPORTE (ECG+SPO2+PNI+TEMP), PARA ATENDER DEMANDA DO PLANO DE CONTIGÊNCIA COVID-19.",Rede Municipal de Saúde,26/03/2020,16/09/2020,74.160.490/0001-20 ,VALMIL COMERCIO DE MEDICAMENTOS LTDA,"234.000,00 ","234.000,00 "
2,10-2020,,FMS - FUNDO MUNICIPAL DE SAÚDE - FMS,"MONITOR MULTIPARAMÉTRICO DE TRANSPORTE (ECG+SPO2+PNI+TEMP) E MONITOR MULTIPARAMÉTRICO COM CAPINOGRAFIA, PARA ATENDER DEMANDA DO PLANO DE CONTIGÊNCIA COVID-19.",Rede Municipal de Saúde,17/03/2020,16/09/2020,10.859.287/0001-63 ,NEWMED COMERCIO E SERVICOS DE EQUIPAMENTOS HOSPITALARES LTDA ME,"1.743.770,00 ","1.743.770,00 "
3,11-2020,,FMS - FUNDO MUNICIPAL DE SAÚDE - FMS,"Óculos de Proteção Incolor em Acrílico  Anti-Embaçante e Anti-Riscos para realização de Procedimentos Odontológicos , para atender demanda do Plano de Contigência COVID-19.",Rede Municipal de Saúde,17/03/2020,16/09/2020,27.970.162/0001-09 ,SAUDE BRASIL COMERCIO DE MATERIAIS MEDICOS EIRELI,"135.000,00 ","135.000,00 "
4,12-2020,Ret 12-2020,FMS - FUNDO MUNICIPAL DE SAÚDE - FMS,"AVENTAL DESCARTÁVEL DE USO HOSPITALAR, PARA ATENDER DEMANDA DO PLANO DE CONTIGÊNCIA COVID-19.",Rede Municipal de Saúde,17/03/2020,16/09/2020,05.932.624/0001-60 ,MEGAMED COMERCIO LTDA,"3.167.270,00 ","3.167.270,00 "
5,13-2020,Ret 13-2020,FMS - FUNDO MUNICIPAL DE SAÚDE - FMS,"AVENTAL DESCARTÁVEL, MÁSCARA CIRÚRGICA E TOCA DESCARTÁVEL,  PARA ATENDER DEMANDA DO PLANO DE CONTIGÊNCIA COVID-19.",Rede Municipal de Saúde,18/03/2020,17/09/2020,11.157.952/0001-30 ,DELTA MED DISTRIBUIDORA DE MEDICAMENTOS EIRELLI,"11.255.488,00 ","11.255.488,00 "
6,14-2020,Rev 14-2020,FMS - FUNDO MUNICIPAL DE SAÚDE - FMS,"AQUISIÇÃO DE MATERIAL MÉDICO HOSPITALAR PARA ATENDER AS NECESSIDADES DA REDE MUNICIPAL DE SAÚDE, CONFORME CI 295/2020-GGAF, DE ACORDO COM A DL 14/2020. C/C 2020.4801.01.0802.0077 COVID-19",Rede Municipal de Saúde,-,16/09/2020,27.970.162/0001-09 ,SAUDE BRASIL COMERCIO DE MATERIAIS MEDICOS EIRELI,- ,- 
7,15-2020,,FMS - FUNDO MUNICIPAL DE SAÚDE - FMS,"LUVA PARA PROCEDIMENTO NÃO CIRÚRGICO,  PARA ATENDER DEMANDA DO PLANO DE CONTIGÊNCIA COVID-19.",Rede Municipal de Saúde,17/03/2020,16/09/2020,27.970.162/0001-09 ,SAUDE BRASIL COMERCIO DE MATERIAIS MEDICOS EIRELI,"6.300.000,00 ","6.300.000,00 "
8,16-2020,Rev 16-2020,FMS - FUNDO MUNICIPAL DE SAÚDE - FMS,"AQUISIÇÃO DE MATERIAL MÉDICO HOSPITALAR PARA ATENDER AS NECESSIDADES DA REDE MUNICIPAL DE SAÚDE, CONFORME CI 294/2020-GGAF, DE ACORDO COM A DL 16/2020. C/C 2020.4801.01.0802.0077 COVID-19",Rede Municipal de Saúde,-,16/09/2020,27.970.162/0001-09 ,SAUDE BRASIL COMERCIO DE MATERIAIS MEDICOS EIRELI,- ,- 
9,17-2020,Rev 17-2020,FMS - FUNDO MUNICIPAL DE SAÚDE - FMS,"AQUISIÇÃO DE MATERIAL MÉDICO HOSPITALAR PARA ATENDER AS NECESSIDADES DA REDE MUNICIPAL DE SAÚDE, CONFORME CI 297/2020-GGAF, DE ACORDO COM A DL 17/2020. C/C 2020.4801.01.0802.0077 COVID-19",Rede Municipal de Saúde,-,16/09/2020,27.970.162/0001-09 ,SAUDE BRASIL COMERCIO DE MATERIAIS MEDICOS EIRELI,- ,- 
10,18-2020,,FMS - FUNDO MUNICIPAL DE SAÚDE - FMS,"MONITOR MULTIPARAMÉTRICO DE TRANSPORTE (ECG+SPO2+PNI+TEMP), PARA ATENDER DEMANDA DO PLANO DE CONTIGÊNCIA COVID-19.",Rede Municipal de Saúde,18/03/2020,17/09/2020,74.160.490/0001-20 ,VALMIL COMERCIO DE MEDICAMENTOS LTDA,"540.000,00 ","540.000,00 "
11,19-2020,,FMS - FUNDO MUNICIPAL DE SAÚDE - FMS,"FOCO CIRURGICO MÓVEL DE LED, PARA ATENDER DEMANDA DO PLANO DE CONTIGÊNCIA COVID-19.",Rede Municipal de Saúde,18/03/2020,17/09/2020,79.805.263/0001-28 ,KSS COMERCIO E INDUSTRIA DE EQUIPAMENTOS MEDICOS LTDA,"332.820,00 ","332.820,00 "
12,20-2020,,FMS - FUNDO MUNICIPAL DE SAÚDE - FMS,"Suporte para Soro; Escada clínica; Poltrona Hospitalar de Assento,  para atender demanda do Plano de Contigência COVID-19.",Rede Municipal de Saúde,19/03/2020,18/09/2020,34.809.258/0001-55 ,STELAR COMERCIO ATACADISTA DE MEDICAMENTOS LTDA,"74.875,00 ","74.875,00 "
13,21-2020,,FMS - FUNDO MUNICIPAL DE SAÚDE - FMS,"Ventilador pulmonar; oximetro de pulso de mesa; oxímetro de pulso, para atender demanda do Plano de Contigência COVID-19.",Rede Municipal de Saúde,18/03/2020,17/09/2020,20.782.880/0001-02 ,NORDESTE MEDICAL REPRESENTACAO IMPORTACAO E EXPORTACAO DE PRODUTOS HOSTIPALARES LTDA,"1.153.000,00 ","1.153.000,00 "
14,22-2020,,FMS - FUNDO MUNICIPAL DE SAÚDE - FMS,"PRESTAÇÃO DE SERVIÇOS DE ENGENHARIA CLÍNICA, , PARA ATENDER DEMANDA DO PLANO DE CONTIGÊNCIA COVID-19.",Rede Municipal de Saúde,20/03/2020,18/09/2020,03.480.539/0001-83 ,S L ENGENHARIA HOSPITALAR LTDA,"95.500,00 ","95.500,00 "
15,23-2020,,FMS - FUNDO MUNICIPAL DE SAÚDE - FMS,"VENTILADOR PULMONAR ADULTO E PEDIÁTRICO, PARA ATENDER DEMANDA DO PLANO DE CONTIGÊNCIA COVID-19.",Rede Municipal de Saúde,18/03/2020,17/09/2020,12.853.727/0001-09 ,KESA COMERCIO E SERVICOS TECNICOS LTDA,"280.000,00 ","280.000,00 "
16,25-2020,,FMS - FUNDO MUNICIPAL DE SAÚDE - FMS,"Máscara, respirador, n95, filtro mecânico de tnt , para atender demanda do Plano de Contigência COVID-19.",Rede Municipal de Saúde,18/03/2020,17/09/2020,07.642.426/0001-98 ,EQUILIBRIUM DISTRIBUIDORA DE MEDICAMENTOS EIRELI,"9.500.000,00 ","9.500.000,00 "
17,26-2020,,FMS - FUNDO MUNICIPAL DE SAÚDE - FMS,"Agulha Hipodérmica- 13X4,5; Agulha Hipodérmica- 25 X 7; Agulha Hipodérmica- 40x12, para atender demanda do Plano de Contigência COVID-19.",Rede Municipal de Saúde,17/03/2020,16/09/2020,05.932.624/0001-60 ,MEGAMED COMERCIO LTDA,"684.000,00 ","684.000,00 "
18,27-2020,,FMS - FUNDO MUNICIPAL DE SAÚDE - FMS,"Cama hospitalar fawler; carro maca hospitalar (maca com rodízio); poltrona hospitalar, , para atender demanda do Plano de Contigência COVID-19.",Rede Municipal de Saúde,18/03/2020,17/09/2020,04.910.323/0001-73 ,MOVEIS ANDRADE INDUSTRIA E COMERCIO DE MOVEIS HOSPITALARES LTDA,"1.703.705,36 ","1.703.705,36 "
19,28-2020,,FMS - FUNDO MUNICIPAL DE SAÚDE - FMS,"FRALDAS DESCARTAVEIS, PARA ATENDER DEMANDA DO PLANO DE CONTIGÊNCIA COVID-19.",Rede Municipal de Saúde,02/04/2020,17/09/2020,08.778.201/0001-26 ,DROGAFONTE LTDA,"487.500,00 ","487.500,00 "
20,29-2020,,FMS - FUNDO MUNICIPAL DE SAÚDE - FMS,"CATETER PERIFÉRICO,  PARA ATENDER DEMANDA DO PLANO DE CONTIGÊNCIA COVID-19.",Rede Municipal de Saúde,15/04/2020,16/09/2020,27.130.979/0001-79 ,OPEN FARMA COMERCIO DE PRODUTOS HOSPITALARES LTDA,"728.000,00 ","728.000,00 "
21,30-2020,,FMS - FUNDO MUNICIPAL DE SAÚDE - FMS,"VENTILADOR PULMONAR ADULTO E PEDIÁTRICO, PARA ATENDER DEMANDA DO PLANO DE CONTIGÊNCIA COVID-19.",Rede Municipal de Saúde,#N/D,17/09/2020,01.298.443/0002-54 ,MAGNAMED TECNOLOGIA MEDICA SA,"2.950.000,00 ","2.950.000,00 "
22,31-2020,,FMS - FUNDO MUNICIPAL DE SAÚDE - FMS,"Aparelho de Raio X Móvel Digital, conforme parecer da engenharia, para atender demanda do Plano de Contigência COVID-19.",Rede Municipal de Saúde,19/03/2020,18/09/2020,02.659.246/0001-03 ,VMI TECNOLOGIAS LTDA,"954.000,00 ","954.000,00 "
23,32-2020,,FMS - FUNDO MUNICIPAL DE SAÚDE - FMS,"INSTALAÇÃO DE REDES DE GASES MEDICINAIS (MÓDULO DE VÁCUO MEDICINAL), PARA ATENDER DEMANDA DO PLANO DE CONTIGÊNCIA COVID-19.",Rede Municipal de Saúde,20/03/2020,18/09/2020,24.380.578/0020-41 ,WHITE MARTINS GASES INDUSTRIAIS DO NORDESTE LTDA,"1.690.355,00 ","1.690.355,00 "
24,33-2020,,FMS - FUNDO MUNICIPAL DE SAÚDE - FMS,"ESTETOSCÓPIO ADULTO, OXÍMETRO PORTÁTIL, RESSUCITADOR MANUAL EM SILICONE, TENSIMÔMETRO ADULTO, PARA ATENDER DEMANDA DO PLANO DE CONTIGÊNCIA COVID-19.",Rede Municipal de Saúde,19/03/2020,18/09/2020,10.859.287/0001-63 ,NEWMED COMERCIO E SERVICOS DE EQUIPAMENTOS HOSPITALARES LTDA ME,"212.000,00 ","212.000,00 "
25,34-2020,,FMS - FUNDO MUNICIPAL DE SAÚDE - FMS,"MONITOR MULTIPARAMÉTRICO DE TRANSPORTE (ECG+SPO2+PNI+TEMP) E MONITOR MULTIPARAMÉTRICO COM CAPINOGRAFIA, PARA ATENDER DEMANDA DO PLANO DE CONTIGÊNCIA COVID-19.",Rede Municipal de Saúde,19/03/2020,18/09/2020,11.405.384/0001-49 ,ALFA MED SISTEMAS MEDICOS LTDA,"4.906.000,00 ","4.906.000,00 "
26,35-2020,,FMS - FUNDO MUNICIPAL DE SAÚDE - FMS,"AQUISIÇÃO DE ALGODÃO, PARA ATENDER DEMANDA DO PLANO DE CONTIGÊNCIA COVID-19.",Rede Municipal de Saúde,02/04/2020,16/09/2020,08.778.201/0001-26 ,DROGAFONTE LTDA,"220.800,00 ","220.800,00 "
27,37-2020,,FMS - FUNDO MUNICIPAL DE SAÚDE - FMS,"VENTILADOR PULMONAR ADULTO E PEDIÁTRICO, PARA ATENDER DEMANDA DO PLANO DE CONTIGÊNCIA COVID-19.",Rede Municipal de Saúde,17/03/2020,16/09/2020,01.298.443/0002-54 ,MAGNAMED TECNOLOGIA MEDICA SA,"1.475.000,00 ","1.475.000,00 "
28,39-2020,,FMS - FUNDO MUNICIPAL DE SAÚDE - FMS,"CONCENTRADOR DE OXIGÊNIO 5L, PARA ATENDER DEMANDA DO PLANO DE CONTIGÊNCIA COVID-19.",Rede Municipal de Saúde,19/03/2020,18/09/2020,24.380.578/0020-41 ,WHITE MARTINS GASES INDUSTRIAIS DO NORDESTE LTDA,"1.161.000,00 ","1.161.000,00 "
29,40-2020,,FMS - FUNDO MUNICIPAL DE SAÚDE - FMS,"VENTILADOR DE TRANSPORTE, PARA ATENDER DEMANDA DO PLANO DE CONTIGÊNCIA COVID-19.",Rede Municipal de Saúde,19/03/2020,18/09/2020,01.298.443/0002-54 ,MAGNAMED TECNOLOGIA MEDICA SA,"1.560.000,00 ","1.560.000,00 "
30,41-2020,,FMS - FUNDO MUNICIPAL DE SAÚDE - FMS,"Aparelho de Raio X Móvel Digital, conforme parecer da engenharia, para atender demanda do Plano de Contigência COVID-19.",Rede Municipal de Saúde,19/03/2020,18/09/2020,02.799.882/0001-22 ,LOTUS INDUSTRIA E COMERCIO LTDA - EPP,"1.830.000,00 ","1.830.000,00 "
31,42-2020,,FMS - FUNDO MUNICIPAL DE SAÚDE - FMS,"Suporte para Soro; Escada clínica, para atender demanda do Plano de Contigência COVID-19.",Rede Municipal de Saúde,19/03/2020,18/09/2020,34.809.258/0001-55 ,STELAR COMERCIO ATACADISTA DE MEDICAMENTOS LTDA,"61.065,00 ","61.065,00 "
32,43-2020,,FMS - FUNDO MUNICIPAL DE SAÚDE - FMS,"REANIMADOR MANUAL TIPO AMBU- ADULTO, PARA ATENDER DEMANDA DO PLANO DE CONTIGÊNCIA COVID-19.",Rede Municipal de Saúde,19/03/2020,18/09/2020,11.758.108/0001-64 ,SERVMED COMERCIO E SERVICOS DE LOCACAO DE EQUIPAMENTOS HOSPITALARES LTDA ME,"165.000,00 ","165.000,00 "
33,45-2020,,FMS - FUNDO MUNICIPAL DE SAÚDE - FMS,"Máscara Facial tipo ventury adulto; Máscara respiratória, PVC, transparente, Infantil, tipo ventury; Máscara respiratória PVC transparente, adulto, tipo ventury, para atender demanda do Plano de Contigência COVID-19.",Rede Municipal de Saúde,20/03/2020,19/09/2020,07.199.135/0001-77 ,HOSPSETE - DISTRIBUIDORA DE MATERIAIS MEDICOS HOSPITALARES LTDA,"122.200,00 ","122.200,00 "
34,46-2020,,FMS - FUNDO MUNICIPAL DE SAÚDE - FMS,"Cama hospitalar fawler; mesa para exame clínico; poltrona hospitalar,  para atender demanda do Plano de Contigência COVID-19.",Rede Municipal de Saúde,16/04/2020,19/09/2020,04.910.323/0001-73 ,MOVEIS ANDRADE INDUSTRIA E COMERCIO DE MOVEIS HOSPITALARES LTDA,"1.003.225,20 ","1.003.225,20 "
35,47-2020,,FMS - FUNDO MUNICIPAL DE SAÚDE - FMS,"UMIDIFICADOR DE OXIGÊNIO, PARA ATENDER DEMANDA DO PLANO DE CONTIGÊNCIA COVID-19.",Rede Municipal de Saúde,20/03/2020,19/09/2020,34.680.592/0001-51 ,BRASIL DEVICES EQUIPAMANENTOS HOSPITALARES EIRELI,"66.000,00 ","66.000,00 "
36,49-2020,,FMS - FUNDO MUNICIPAL DE SAÚDE - FMS,"VENTILADOR PULMONAR ADULTO E PEDIÁTRICO, PARA ATENDER DEMANDA DO PLANO DE CONTIGÊNCIA COVID-19.",Rede Municipal de Saúde,#N/D,19/09/2020,49.520.521/0001-69 ,INTERMED EQUIPAMENTO MEDICO HOSPITALAR LTDA,"2.600.000,00 ","2.600.000,00 "
37,51-2020,Ret 51-2020,FMS - FUNDO MUNICIPAL DE SAÚDE - FMS,"ESPAÇADPR COM MÁSCARA INFANTIL ULTRAFLEXÍVEL BIVALVULADA, PARA ATENDER DEMANDA DO PLANO DE CONTIGÊNCIA COVID-19.",Rede Municipal de Saúde,20/03/2020,19/09/2020,12.889.035/0001-02 ,INOVAMED COMERCIO DE MEDICAMENTOS LTDA,"145.000,00 ","145.000,00 "
38,53-2020,,FMS - FUNDO MUNICIPAL DE SAÚDE - FMS,"COLETOR DE URINA PVC SISTEMA FECHADO E SISTEMA ABERTO,  ATENDER DEMANDA DO PLANO DE CONTIGÊNCIA COVID-19.",Rede Municipal de Saúde,23/03/2020,22/09/2020,27.970.162/0001-09 ,SAUDE BRASIL COMERCIO DE MATERIAIS MEDICOS EIRELI,"504.000,00 ","504.000,00 "
39,57-2020,,FMS - FUNDO MUNICIPAL DE SAÚDE - FMS,"CI N 53/2020 - GCR DE 23.03.2020 - MANUTENCAO PREVENTIVA E CORRETIVA EM VENTILADORES PULMONARES, PARA ATENDER AS DEMANDAS DE ACOES DE COMBATE AO COVID-19",Rede Municipal de Saúde,23/03/2020,22/09/2020,13.272.584/0001-04 ,RESMEDICAL EQUIPAMENTOS HOSPITALARES LTDA EPP,"279.260,46 ","279.260,46 "
40,58-2020,,FMS - FUNDO MUNICIPAL DE SAÚDE - FMS,"CONCENTRADOR DE OXIGÊNIO 5L, PARA ATENDER DEMANDA DO PLANO DE CONTIGÊNCIA COVID-19.",Rede Municipal de Saúde,23/03/2020,22/09/2020,24.380.578/0020-41 ,WHITE MARTINS GASES INDUSTRIAIS DO NORDESTE LTDA,"2.322.000,00 ","2.322.000,00 "
41,60-2020,,FMS - FUNDO MUNICIPAL DE SAÚDE - FMS,"TERMOMETRO DIGITAL, PARA ATENDER DEMANDA DO PLANO DE CONTIGÊNCIA COVID-19.",Rede Municipal de Saúde,23/03/2020,22/09/2020,05.343.029/0001-90 ,MEDLEVENSOHN COMERCIO REPRESENTACOES DE PRODUTOS HOSPITALARES LTDA,"22.400,00 ","22.400,00 "
42,61-2020,Ret 61-2020,FMS - FUNDO MUNICIPAL DE SAÚDE - FMS,"FORNECIMENTO DE MODULOS PRE FABRICADOS TIPO ESCRITORIO 6,00X2,50 EM VIRTUDE DAS ACOES DE COMBATE A PROPAGACAO COVID19",Rede Municipal de Saúde,26/03/2020,22/03/2021,06.167.644/0001-55 ,EMBRALOC LOCADORA E COMERCIO DE MAQUINAS E EQUIPAMENTOS EIRELI,"512.000,00 ","512.000,00 "
43,62-2020,,FMS - FUNDO MUNICIPAL DE SAÚDE - FMS,"AVENTAIS PROTETORES DE RAIO-X E PROTETORES DE TIREÓIDES CONTRA RAIO-X, PARA ATENDER DEMANDA DO PLANO DE CONTIGÊNCIA COVID-19.",Rede Municipal de Saúde,23/03/2020,22/09/2020,11.758.108/0001-64 ,SERVMED COMERCIO E SERVICOS DE LOCACAO DE EQUIPAMENTOS HOSPITALARES LTDA ME,"43.100,00 ","43.100,00 "
44,63-2020,,FMS - FUNDO MUNICIPAL DE SAÚDE - FMS,"LOCAÇÃO DE TOLDO, INSTALÇÃO DE ESTANDE CLIMATIZADO, CADEIRAS PLÁSTICAS BRANCAS, MESAS PLÁSTICAS BRANCAS GELAGUAS, PARA ATENDER DEMANDA DO PLANO DE CONTIGÊNCIA COVID-19.",Rede Municipal de Saúde,26/03/2020,23/07/2020,41.246.265/0001-51 ,CARDOSO INDUSTRIA E COMERCIO LTDA EPP - ARTS COMUNICACAO VISUAL E SERVICOS,"1.548.144,00 ","1.548.144,00 "
45,64-2020,Rev 64-2020,FMS - FUNDO MUNICIPAL DE SAÚDE - FMS,"LOCAÇÃO DE TOLDO, INSTALÇÃO DE ESTANDE CLIMATIZADO, CADEIRAS PLÁSTICAS BRANCAS, MESAS PLÁSTICAS BRANCAS GELAGUAS, PARA ATENDER DEMANDA DO PLANO DE CONTIGÊNCIA COVID-19.",Rede Municipal de Saúde,-,30/07/2020,41.246.265/0001-51 ,CARDOSO INDUSTRIA E COMERCIO LTDA EPP - ARTS COMUNICACAO VISUAL E SERVICOS,- ,- 
46,66-2020,Ret 66-2020,FMS - FUNDO MUNICIPAL DE SAÚDE - FMS,"MEDICAMENTOS, PARA ATENDER DEMANDA DO PLANO DE CONTIGÊNCIA COVID-19.",Rede Municipal de Saúde,26/03/2020,25/09/2020,02.520.829/0001-40 ,DIMASTER COMERCIO DE PRODUTOS HOSPITALARES LTDA,"79.400,00 ","3.261.966,20 "
47,66-2020,Ret 66-2020,FMS - FUNDO MUNICIPAL DE SAÚDE - FMS,"MEDICAMENTOS, PARA ATENDER DEMANDA DO PLANO DE CONTIGÊNCIA COVID-19.",Rede Municipal de Saúde,26/03/2020,,08.778.201/0001-26 ,DROGAFONTE LTDA,"1.574.641,20 ",
48,66-2020,Ret 66-2020,FMS - FUNDO MUNICIPAL DE SAÚDE - FMS,"MEDICAMENTOS, PARA ATENDER DEMANDA DO PLANO DE CONTIGÊNCIA COVID-19.",Rede Municipal de Saúde,26/03/2020,,44.734.671/0001-51 ,CRISTALIA PRODUTOS QUIMICOS FARMACEUTICOS LTDA,"271.125,00 ",
49,66-2020,Ret 66-2020,FMS - FUNDO MUNICIPAL DE SAÚDE - FMS,"MEDICAMENTOS, PARA ATENDER DEMANDA DO PLANO DE CONTIGÊNCIA COVID-19.",Rede Municipal de Saúde,26/03/2020,,08.674.752/0001-40 ,CIRURGICA MONTEBELLO LTDA,"165.300,00 ",
50,66-2020,Ret 66-2020,FMS - FUNDO MUNICIPAL DE SAÚDE - FMS,"MEDICAMENTOS, PARA ATENDER DEMANDA DO PLANO DE CONTIGÊNCIA COVID-19.",Rede Municipal de Saúde,30/03/2020,,03.817.043/0001-52 ,PHARMAPLUS LTDA,"273.500,00 ",
51,66-2020,Ret 66-2020,FMS - FUNDO MUNICIPAL DE SAÚDE - FMS,"MEDICAMENTOS, PARA ATENDER DEMANDA DO PLANO DE CONTIGÊNCIA COVID-19.",Rede Municipal de Saúde,26/03/2020,,07.484.373/0001-24 ,UNI HOSPITALAR LTDA,"898.000,00 ",
52,67-2020,,FMS - FUNDO MUNICIPAL DE SAÚDE - FMS,"MEDICAMENTOS, PARA ATENDER DEMANDA DO PLANO DE CONTIGÊNCIA COVID-19.",Rede Municipal de Saúde,26/03/2020,25/09/2020,44.734.671/0001-51 ,CRISTALIA PRODUTOS QUIMICOS FARMACEUTICOS LTDA,"2.167.012,50 ","2.972.157,50 "
53,67-2020,,FMS - FUNDO MUNICIPAL DE SAÚDE - FMS,"MEDICAMENTOS, PARA ATENDER DEMANDA DO PLANO DE CONTIGÊNCIA COVID-19.",Rede Municipal de Saúde,26/03/2020,,08.778.201/0001-26 ,DROGAFONTE LTDA,"727.025,00 ",
54,67-2020,,FMS - FUNDO MUNICIPAL DE SAÚDE - FMS,"MEDICAMENTOS, PARA ATENDER DEMANDA DO PLANO DE CONTIGÊNCIA COVID-19.",Rede Municipal de Saúde,26/03/2020,,08.674.752/0001-40 ,CIRURGICA MONTEBELLO LTDA,"78.120,00 ",
55,68-2020,,FMS - FUNDO MUNICIPAL DE SAÚDE - FMS,"MÁSCARA DE NÃO REINALAÇÃO,  PARA ATENDER DEMANDA DO PLANO DE CONTIGÊNCIA COVID-19.",Rede Municipal de Saúde,25/03/2020,24/09/2020,34.680.592/0001-51 ,BRASIL DEVICES EQUIPAMANENTOS HOSPITALARES EIRELI,"700.000,00 ","700.000,00 "
56,70-2020,Rev 70-2020,FMS - FUNDO MUNICIPAL DE SAÚDE - FMS,"AQUISIÇÃO DE MATERIAL MEDICO HOSPITALAR, PARA ATENDER AS NECESSIDADES DA REDE MUNICIPAL DE SAUDE CONF. CI N 336/2020 GERENCIA GERAL DE ASSISTENCIA FARMACEUTICA DE ACORDO COM A DL 70/2020 CC 2020.4801.01.0802.0077 COVID 19",Rede Municipal de Saúde,-,23/09/2020,58.426.628/0001-33 ,SAMTRONIC INDUSTRIA E COMERCIO LTDA,- ,- 
57,70-2020,Rev 70-2020,FMS - FUNDO MUNICIPAL DE SAÚDE - FMS,"AQUISIÇÃO DE MATERIAL MEDICO HOSPITALAR, PARA ATENDER AS NECESSIDADES DA REDE MUNICIPAL DE SAUDE CONF. CI N 336/2020 GERENCIA GERAL DE ASSISTENCIA FARMACEUTICA DE ACORDO COM A DL 70/2020 CC 2020.4801.01.0802.0077 COVID 19",Rede Municipal de Saúde,-,,27.970.162/0001-09 ,SAUDE BRASIL COMERCIO DE MATERIAIS MEDICOS EIRELI,- ,
58,71-2020,Ret 71-2020,FMS - FUNDO MUNICIPAL DE SAÚDE - FMS,"LOCAÇÃO DE ESTRUTURA TEMPORÁRIA DE LEITOS NAS POLICLÍNICAS, MATERNIDADE E HOSPITAL DA MULHER, PARA ATENDER DEMANDA DO PLANO DE CONTIGÊNCIA COVID-19.",Hospital da Mulher do Recife,24/03/2020,23/07/2020,41.246.265/0001-51 ,CARDOSO INDUSTRIA E COMERCIO LTDA EPP - ARTS COMUNICACAO VISUAL E SERVICOS,"4.541.208,00 ","4.541.208,00 "
59,72-2020,,FMS - FUNDO MUNICIPAL DE SAÚDE - FMS,"""LOCAÇÃO DE APARELHOS DE AR CONDICIONADO TIPO SPLIT, COM INSTALAÇÃO E MANUTENÇÃO PREVENTIVA E CORRETIVA, PARA ATENDER DEMANDA DO PLANO DE CONTIGÊNCIA COVID-19"".",Rede Municipal de Saúde,07/04/2020,29/09/2020,06.983.851/0001-88 ,ACR COMERCIAL LTDA,"504.144,00 ","908.074,00 "
60,72-2020,,FMS - FUNDO MUNICIPAL DE SAÚDE - FMS,"""LOCAÇÃO DE APARELHOS DE AR CONDICIONADO TIPO SPLIT, COM INSTALAÇÃO E MANUTENÇÃO PREVENTIVA E CORRETIVA, PARA ATENDER DEMANDA DO PLANO DE CONTIGÊNCIA COVID-19"".",Rede Municipal de Saúde,07/04/2020,,26.081.685/0001-31 ,CG REFRIGERAÇÕES LTDA,"403.930,00 ",
61,73-2020,Ret 73-2020,FMS - FUNDO MUNICIPAL DE SAÚDE - FMS,"MATERIAIS LABORATORAIS (DOSAGENS), PARA ATENDER DEMANDA DO PLANO DE CONTIGÊNCIA COVID-19.",Rede Municipal de Saúde,24/04/2020,23/09/2020,08.282.077/0001-03 ,BIOSYSTEMS NE COMERCIO DE PRODUTOS LABORATORIAIS E HOSPITALARES LTDA,"508.824,00 ","508.824,00 "
62,74-2020,,FMS - FUNDO MUNICIPAL DE SAÚDE - FMS,"MATERIAIS MÉDICO-HOSPITALAR (ATADURA, ELETRODO, ESPARADRAPO, SERINGA, CATETER PERÍFÉRICO, SONDA, AGULHA HIPODÉRMICA, ENTRE OUTROS), PARA ATENDER DEMANDA DO PLANO DE CONTIGÊNCIA COVID-19.",Rede Municipal de Saúde,26/03/2020,24/09/2020,08.778.201/0001-26 ,DROGAFONTE LTDA,"354.760,00 ","7.947.860,00 "
63,74-2020,,FMS - FUNDO MUNICIPAL DE SAÚDE - FMS,"MATERIAIS MÉDICO-HOSPITALAR (ATADURA, ELETRODO, ESPARADRAPO, SERINGA, CATETER PERÍFÉRICO, SONDA, AGULHA HIPODÉRMICA, ENTRE OUTROS), PARA ATENDER DEMANDA DO PLANO DE CONTIGÊNCIA COVID-19.",Rede Municipal de Saúde,26/03/2020,,05.932.624/0001-60 ,MEGAMED COMERCIO LTDA,"4.977.500,00 ",
64,74-2020,,FMS - FUNDO MUNICIPAL DE SAÚDE - FMS,"MATERIAIS MÉDICO-HOSPITALAR (ATADURA, ELETRODO, ESPARADRAPO, SERINGA, CATETER PERÍFÉRICO, SONDA, AGULHA HIPODÉRMICA, ENTRE OUTROS), PARA ATENDER DEMANDA DO PLANO DE CONTIGÊNCIA COVID-19.",Rede Municipal de Saúde,26/03/2020,,27.970.162/0001-09 ,SAUDE BRASIL COMERCIO DE MATERIAIS MEDICOS EIRELI,"2.207.600,00 ",
65,74-2020,,FMS - FUNDO MUNICIPAL DE SAÚDE - FMS,"MATERIAIS MÉDICO-HOSPITALAR (ATADURA, ELETRODO, ESPARADRAPO, SERINGA, CATETER PERÍFÉRICO, SONDA, AGULHA HIPODÉRMICA, ENTRE OUTROS), PARA ATENDER DEMANDA DO PLANO DE CONTIGÊNCIA COVID-19.",Rede Municipal de Saúde,26/03/2020,,05.343.029/0001-90 ,MEDLEVENSOHN COMERCIO REPRESENTACOES DE PRODUTOS HOSPITALARES LTDA,"408.000,00 ",
66,76-2020,,FMS - FUNDO MUNICIPAL DE SAÚDE - FMS,"VENTILADOR DE TRANSPORTE, PARA ATENDER DEMANDA DO PLANO DE CONTIGÊNCIA COVID-19.",Rede Municipal de Saúde,04/05/2020,23/09/2020,02.535.707/0001-28 ,DRAGER INDUSTRIA E COMERCIO LTDA,"718.500,00 ","718.500,00 "
67,77-2020,,FMS - FUNDO MUNICIPAL DE SAÚDE - FMS,"CIRCUITO PACIENTE ADULTO SILICONE, PARA ATENDER DEMANDA DO PLANO DE CONTIGÊNCIA COVID-19.",Rede Municipal de Saúde,04/05/2020,24/09/2020,13.272.584/0001-04 ,RESMEDICAL EQUIPAMENTOS HOSPITALARES LTDA EPP,"70.000,00 ","70.000,00 "
68,78-2020,,FMS - FUNDO MUNICIPAL DE SAÚDE - FMS,"Filtro higroscópico/hidrofóbico para uso em ventilação mecânica adulto ? filtro para uso em circuito de ventilação mecânica, adulto, descartável,  para atender demanda do Plano de Contigência COVID-19.",Rede Municipal de Saúde,24/03/2020,23/09/2020,20.782.880/0001-02 ,NORDESTE MEDICAL REPRESENTACAO IMPORTACAO E EXPORTACAO DE PRODUTOS HOSTIPALARES LTDA,"120.000,00 ","120.000,00 "
69,79-2020,,FMS - FUNDO MUNICIPAL DE SAÚDE - FMS,"TERMOMETRO DIGITAL, PARA ATENDER DEMANDA DO PLANO DE CONTIGÊNCIA COVID-19.",Rede Municipal de Saúde,25/03/2020,24/09/2020,36.441.494/0001-97 ,MULTIMEDICA DISTRIBUIDORA DE PRODUTOS PARA SAUDE EIRELI,"28.000,00 ","28.000,00 "
70,80-2020,,FMS - FUNDO MUNICIPAL DE SAÚDE - FMS,"PRESTAÇÃO DE SERVIÇOS DE ANÁLISES LABORATORIAIS, PARA ATENDER DEMANDA DO PLANO DE CONTIGÊNCIA COVID-19.",Rede Municipal de Saúde,26/03/2020,24/09/2020,04.539.279/0001-37 ,CIENTIFICALAB PRODUTOS LABORATORIAIS E SISTEMAS LTDA,"3.175.200,00 ","3.175.200,00 "
71,81-2020,,FMS - FUNDO MUNICIPAL DE SAÚDE - FMS,"CADEIRAS - SECRETÁRIA FIXA E CADEIRAS - SECRETARIA EXECUTIVA, PARA ATENDER DEMANDA DO PLANO DE CONTIGÊNCIA COVID-19.",Rede Municipal de Saúde,25/03/2020,24/09/2020,15.182.082/0001-00 ,H M MOVEIS LTDA,"307.974,00 ","307.974,00 "
72,82-2020,,FMS - FUNDO MUNICIPAL DE SAÚDE - FMS,"SUPORTE DE SORO, PARA ATENDER DEMANDA DO PLANO DE CONTIGÊNCIA COVID-19.",Rede Municipal de Saúde,15/04/2020,25/09/2020,23.027.070/0001-39 ,VLC CONSTRUTORA LTDA ME,"177.425,00 ","177.425,00 "
73,83-2020,,FMS - FUNDO MUNICIPAL DE SAÚDE - FMS,"Filtro higroscópico/hidrofóbico para uso em ventilação mecânica adulto ? filtro para uso em circuito de ventilação mecânica, adulto, descartável de uso único, para atender demanda do Plano de Contigência COVID-19.",Rede Municipal de Saúde,26/03/2020,25/09/2020,20.782.880/0001-02 ,NORDESTE MEDICAL REPRESENTACAO IMPORTACAO E EXPORTACAO DE PRODUTOS HOSTIPALARES LTDA,"2.190.900,00 ","2.190.900,00 "
74,84-2020,,FMS - FUNDO MUNICIPAL DE SAÚDE - FMS,"PARA ATENDER AS NECESSIDADES DA REDE MUNICIPAL DE SAUDE, CONF. CI 68/2020 - GCR DE 25/03/2020 - COVID 19 - DL 84/2020 - CC 2020.4801.01.0799.0077.",Rede Municipal de Saúde,26/03/2020,25/09/2020,05.120.289/0001-04 ,CISABRASILE LTDA,"605.758,51 ","605.758,51 "
75,85-2020,,FMS - FUNDO MUNICIPAL DE SAÚDE - FMS,"TERMODESINFECTADORA, PARA ATENDER DEMANDA DO PLANO DE CONTIGÊNCIA COVID-19.",Rede Municipal de Saúde,15/04/2020,25/09/2020,48.240.709/0001-90 ,ORTOSINTESE INDUSTRIA E COMERCIO LTDA,"200.738,95 ","200.738,95 "
76,86-2020,,FMS - FUNDO MUNICIPAL DE SAÚDE - FMS,"LOCAÇÃO DE 11 DESFIBRILADORES,  PARA ATENDER DEMANDA DO PLANO DE CONTIGÊNCIA COVID-19.",Rede Municipal de Saúde,09/04/2020,25/09/2020,01.985.366/0001-20 ,INDUMED COMERCIO IMPORTACAO E EXPORTACAO DE PRODUTOS MEDICOS LTDA,"65.472,00 ","65.472,00 "
77,87-2020,,FMS - FUNDO MUNICIPAL DE SAÚDE - FMS,"GUARNIÇÃO DE SILICONE PARA TERMODESINFECTADORA, PARA ATENDER DEMANDA DO PLANO DE CONTIGÊNCIA COVID-19.",Rede Municipal de Saúde,26/03/2020,25/09/2020,14.951.481/0001-25 ,BM COMERCIO E SERVICOS DE EQUIPAMENTOS MEDICOS HOSPITALARES LTDA,"20.040,00 ","20.040,00 "
78,88-2020,,FMS - FUNDO MUNICIPAL DE SAÚDE - FMS,"SENSOR DE OXIMETRIA E OXIMETRO DE PULSO DE MESA), PARA ATENDER DEMANDA DO PLANO DE CONTIGÊNCIA COVID-19.",Rede Municipal de Saúde,27/03/2020,26/09/2020,27.705.997/0001-31 ,MEDICALMED REPRESENTACOES IMPORTACAO E EXPORTACAO DE PRODUTOS HOSPITALARES LTDA,"933.000,00 ","933.000,00 "
79,89-2020,,FMS - FUNDO MUNICIPAL DE SAÚDE - FMS,"LOCAÇÃO DE GERADOR, PARA ATENDER DEMANDA DO PLANO DE CONTIGÊNCIA COVID-19.",Rede Municipal de Saúde,28/03/2020,25/09/2020,14.167.017/0001-42 ,GERAMAIS LOCACAO DE GERADORES LTDA ME,"132.000,00 ","132.000,00 "
80,90-2020,,FMS - FUNDO MUNICIPAL DE SAÚDE - FMS,"LOCAÇÃO DE ESTRUTURA EM ALUMÍNIO COM COBERTA PARA O HOSPITAL TEMPORÁRIO NO BAIRRO DOS COELHOS, PARA ATENDER DEMANDA DO PLANO DE CONTIGÊNCIA COVID-19.",Hospital Provisório do Recife- Coelhos,26/03/2020,25/09/2020,10.288.750/0001-64 ,S G LOCACAO & PRODUCAO DE EVENTOS LTDA - EPP,"1.860.000,00 ","1.860.000,00 "
81,91-2020,,FMS - FUNDO MUNICIPAL DE SAÚDE - FMS,"INTERLIGAÇÃO E INSTALAÇÃO DE REDE CANALIZADA, MÓDULOS DE AR E VÁCUO E FORNECIMENTO DE GASES MEDICINAIS, PARA ATENDER DEMANDA DO PLANO DE CONTIGÊNCIA COVID-19.",Rede Municipal de Saúde,31/03/2020,26/09/2020,24.380.578/0020-41 ,WHITE MARTINS GASES INDUSTRIAIS DO NORDESTE LTDA,"3.752.816,64 ","3.752.816,64 "
82,92-2020,,FMS - FUNDO MUNICIPAL DE SAÚDE - FMS,"COLCHÃO D-28 DENSIDADE, PARA ATENDER DEMANDA DO PLANO DE CONTIGÊNCIA COVID-19.",Rede Municipal de Saúde,26/03/2020,25/09/2020,24.846.094/0001-82 ,MEL INDUSTRIA DE COLCHOES LTDA - NORDESTE COLCHOES,"172.000,00 ","172.000,00 "
83,93-2020,Ret 93-2020,FMS - FUNDO MUNICIPAL DE SAÚDE - FMS,PRESTACAO DE SERVIÇOS DE ENGENHARIA CLINICA NOS HOSPITAIS EMERGENCIAIS E DEMAIS LEITOS PARA ATENDIMENTO COVID-19 DISPENSA LICITACAO 71/2020 PARA ATENDER A SECRETARIA DE SAÚDE DA PREFEITURA DO RECIFE.,Rede Municipal de Saúde,31/03/2020,25/09/2020,03.480.539/0001-83 ,S L ENGENHARIA HOSPITALAR LTDA,"110.000,00 ","110.000,00 "
84,94-2020,Ret 94-2020,FMS - FUNDO MUNICIPAL DE SAÚDE - FMS,"PRESTAÇÃO DE SERVIÇOS DE ENGENHARIA CLÍNICA, INCLUINDO MANUTENÇÃO CORRETIVA DOS EQUIPAMENTOS MÉDICO- HOSPITALARES E REALIZAÇÃO DE MANUTENÇÃO EMERGENCIAL DE BAIXA E MÉDIA COMPLEXIDADE, NOS HOSPITAIS PROVISÓRIOS DA AURORA, COELHOS, IMBIRIBEIRA E DEMAIS LEITOS DESTINADOS AO ENFRENTAMENTO DA COVID-19, PARA ATENDER DEMANDA DO PLANO DE CONTIGÊNCIA COVID-19.",Hospital Provisório do Recife- Coelhos/ Imbiribeira e Aurora,31/03/2020,25/09/2020,03.480.539/0001-83 ,S L ENGENHARIA HOSPITALAR LTDA,"1.200.000,00 ","1.200.000,00 "
85,95-2020,Ret 95-2020,FMS - FUNDO MUNICIPAL DE SAÚDE - FMS,"MATERIAIS MEDICOS HOSPITALARES E FARMACOLÓGICOS, PARA ATENDER DEMANDA DO PLANO DE CONTIGÊNCIA COVID-19.",Rede Municipal de Saúde,27/04/2020,26/09/2020,08.778.201/0001-26 ,DROGAFONTE LTDA,"37.240,00 ","22.317.172,50 "
86,95-2020,Ret 95-2020,FMS - FUNDO MUNICIPAL DE SAÚDE - FMS,"MATERIAIS MEDICOS HOSPITALARES E FARMACOLÓGICOS, PARA ATENDER DEMANDA DO PLANO DE CONTIGÊNCIA COVID-19.",Rede Municipal de Saúde,27/03/2020,,05.343.029/0001-90 ,MEDLEVENSOHN COMERCIO REPRESENTACOES DE PRODUTOS HOSPITALARES LTDA,"405.750,00 ",
87,95-2020,Ret 95-2020,FMS - FUNDO MUNICIPAL DE SAÚDE - FMS,"MATERIAIS MEDICOS HOSPITALARES E FARMACOLÓGICOS, PARA ATENDER DEMANDA DO PLANO DE CONTIGÊNCIA COVID-19.",Rede Municipal de Saúde,27/03/2020,,05.932.624/0001-60 ,MEGAMED COMERCIO LTDA,"7.922.500,00 ",
88,95-2020,Ret 95-2020,FMS - FUNDO MUNICIPAL DE SAÚDE - FMS,"MATERIAIS MEDICOS HOSPITALARES E FARMACOLÓGICOS, PARA ATENDER DEMANDA DO PLANO DE CONTIGÊNCIA COVID-19.",Rede Municipal de Saúde,31/03/2020,,15.161.670/0001-67 ,FACIMED COMERCIO E REPRESENTACOES EIRELI,"7.950.000,00 ",
89,95-2020,Ret 95-2020,FMS - FUNDO MUNICIPAL DE SAÚDE - FMS,"MATERIAIS MEDICOS HOSPITALARES E FARMACOLÓGICOS, PARA ATENDER DEMANDA DO PLANO DE CONTIGÊNCIA COVID-19.",Rede Municipal de Saúde,27/03/2020,,27.970.162/0001-09 ,SAUDE BRASIL COMERCIO DE MATERIAIS MEDICOS EIRELI,"6.001.682,50 ",
90,96-2020,,FMS - FUNDO MUNICIPAL DE SAÚDE - FMS,"MATERIAIS DE LABORATÓRIO, PARA ATENDER DEMANDA DO PLANO DE CONTIGÊNCIA COVID-19.",Rede Municipal de Saúde,27/03/2020,26/09/2020,01.490.595/0001-73 ,DIAGNOCEL COMERCIO E REPRESENTAÇOES LTDA,"46.173,00 ","46.173,00 "
91,97-2020,,FMS - FUNDO MUNICIPAL DE SAÚDE - FMS,"MATERIAIS DE LABORATÓRIO (DOSAGEM E TESTES), PARA ATENDER DEMANDA DO PLANO DE CONTIGÊNCIA COVID-19.",Rede Municipal de Saúde,03/04/2020,29/09/2020,42.160.812/0006-59 ,BECKMAN COULTER DO BRASIL COMERCIO E IMPORTACAO DE PRODUTOS DE LABORATORIO LTDA,"815.252,60 ","815.252,60 "
92,98-2020,,FMS - FUNDO MUNICIPAL DE SAÚDE - FMS,"CAMA HOSPITALAR, PARA ATENDER DEMANDA DO PLANO DE CONTIGÊNCIA COVID-19.",Rede Municipal de Saúde,17/04/2020,26/09/2020,11.157.952/0001-30 ,DELTA MED DISTRIBUIDORA DE MEDICAMENTOS EIRELLI,"642.500,00 ","642.500,00 "
93,99-2020,,FMS - FUNDO MUNICIPAL DE SAÚDE - FMS,"Eletrocardiógafo, conforme parecer da engenharia clinica, para atender demanda do Plano de Contigência COVID-19 .",Rede Municipal de Saúde,27/03/2020,26/09/2020,27.705.997/0001-31 ,MEDICALMED REPRESENTACOES IMPORTACAO E EXPORTACAO DE PRODUTOS HOSPITALARES LTDA,"106.400,00 ","106.400,00 "
94,101-2020,,FMS - FUNDO MUNICIPAL DE SAÚDE - FMS,"AQUISIÇÃO DE MEDICAMENTOS,  PARA ATENDER DEMANDA DO PLANO DE CONTIGÊNCIA COVID-19.",Rede Municipal de Saúde,27/03/2020,26/09/2020,07.484.373/0001-24 ,UNI HOSPITALAR LTDA,"3.494.574,00 ","9.682.315,25 "
95,101-2020,,FMS - FUNDO MUNICIPAL DE SAÚDE - FMS,"AQUISIÇÃO DE MEDICAMENTOS,  PARA ATENDER DEMANDA DO PLANO DE CONTIGÊNCIA COVID-19.",Rede Municipal de Saúde,30/03/2020,,03.817.043/0001-52 ,PHARMAPLUS LTDA,"126.955,00 ",
96,101-2020,,FMS - FUNDO MUNICIPAL DE SAÚDE - FMS,"AQUISIÇÃO DE MEDICAMENTOS,  PARA ATENDER DEMANDA DO PLANO DE CONTIGÊNCIA COVID-19.",Rede Municipal de Saúde,27/03/2020,,44.734.671/0001-51 ,CRISTALIA PRODUTOS QUIMICOS FARMACEUTICOS LTDA,"709.812,50 ",
97,101-2020,,FMS - FUNDO MUNICIPAL DE SAÚDE - FMS,"AQUISIÇÃO DE MEDICAMENTOS,  PARA ATENDER DEMANDA DO PLANO DE CONTIGÊNCIA COVID-19.",Rede Municipal de Saúde,27/03/2020,,08.778.201/0001-26 ,DROGAFONTE LTDA,"329.247,50 ",
98,101-2020,,FMS - FUNDO MUNICIPAL DE SAÚDE - FMS,"AQUISIÇÃO DE MEDICAMENTOS,  PARA ATENDER DEMANDA DO PLANO DE CONTIGÊNCIA COVID-19.",Rede Municipal de Saúde,27/03/2020,,60.665.981/0009-75 ,UNIAO QUIMICA FARMACEUTICA NACIONAL SA,"5.021.726,25 ",
99,102-2020,,FMS - FUNDO MUNICIPAL DE SAÚDE - FMS,"FORNECIMENTO DE MEDICAMENTOS, PARA ATENDER DEMANDA DO PLANO DE CONTIGÊNCIA COVID-19.",Rede Municipal de Saúde,27/03/2020,26/09/2020,07.484.373/0001-24 ,UNI HOSPITALAR LTDA,"2.591.281,25 ","4.785.031,25 "
100,102-2020,,FMS - FUNDO MUNICIPAL DE SAÚDE - FMS,"FORNECIMENTO DE MEDICAMENTOS, PARA ATENDER DEMANDA DO PLANO DE CONTIGÊNCIA COVID-19.",Rede Municipal de Saúde,30/03/2020,,03.817.043/0001-52 ,PHARMAPLUS LTDA,"2.193.750,00 ",
101,103-2020,Ret 103-2020,FMS - FUNDO MUNICIPAL DE SAÚDE - FMS,"INSTRUMENTOS MÉDICOS E UTENSÍLIOS HOSPITALARES,  PARA ATENDER DEMANDA DO PLANO DE CONTIGÊNCIA COVID-19.",Rede Municipal de Saúde,27/03/2020,26/09/2020,07.626.776/0001-60 ,CIRURGICA SAO FELIPE PRODUTOS PARA SAUDE EIRELI EPP,"520.940,00 ","520.940,00 "
102,104-2020,,FMS - FUNDO MUNICIPAL DE SAÚDE - FMS,"LUVAS PARA PROCEDIMENTO NÃO CIRURGICO TAMANHO P E G, PARA ATENDER DEMANDA DO PLANO DE CONTIGÊNCIA COVID-19.",Rede Municipal de Saúde,27/03/2020,26/09/2020,27.970.162/0001-09 ,SAUDE BRASIL COMERCIO DE MATERIAIS MEDICOS EIRELI,"4.500.000,00 ","4.500.000,00 "
103,105-2020,,FMS - FUNDO MUNICIPAL DE SAÚDE - FMS,"LUVA ANTIALÉRGICA PARA PROCEDIMENTO, PARA ATENDER DEMANDA DO PLANO DE CONTIGÊNCIA COVID-19.",Rede Municipal de Saúde,27/03/2020,26/09/2020,08.778.201/0001-26 ,DROGAFONTE LTDA,"24.908,00 ","24.908,00 "
104,106-2020,,FMS - FUNDO MUNICIPAL DE SAÚDE - FMS,"CARRO DE EMERGÊNCIA E MONITOR MULTIPARAMÉTRICO DE TRANSPORTE, , PARA ATENDER DEMANDA DO PLANO DE CONTIGÊNCIA COVID-19.",Rede Municipal de Saúde,27/03/2020,26/09/2020,07.626.776/0001-60 ,CIRURGICA SAO FELIPE PRODUTOS PARA SAUDE EIRELI EPP,"578.700,00 ","578.700,00 "
105,107-2020,Ret 107-2020,FMS - FUNDO MUNICIPAL DE SAÚDE - FMS,"LOCAÇÃO DE GERADOR, PARA ATENDER DEMANDA DO PLANO DE CONTIGÊNCIA COVID-19.",Rede Municipal de Saúde,27/03/2020,26/09/2020,14.167.017/0001-42 ,GERAMAIS LOCACAO DE GERADORES LTDA ME,"132.000,00 ","132.000,00 "
106,108-2020,Rev 108-2020,FMS - FUNDO MUNICIPAL DE SAÚDE - FMS,"VENTILADOR PULMONAR ADULTO E PEDIÁTRICO, PARA ATENDER DEMANDA DO PLANO DE CONTIGÊNCIA COVID-19.",Rede Municipal de Saúde,-,29/09/2020,35.177.684/0001-86 ,JUVANETE BARRETO FREIRE 57432449791,- ,- 
107,109-2020,,FMS - FUNDO MUNICIPAL DE SAÚDE - FMS,"MÁSCARA CIRÚRGICA, PARA ATENDER DEMANDA DO PLANO DE CONTIGÊNCIA COVID-19.",Rede Municipal de Saúde,30/03/2020,29/09/2020,00.165.933/0001-39 ,DESCARTEX CONFECCOES E COMERCIO LTDA H - MED,"30.000,00 ","30.000,00 "
108,110-2020,,FMS - FUNDO MUNICIPAL DE SAÚDE - FMS,"CESSÃO DE MÓDULOS TIPO ESCRITÓRIO SEM BANHEIRO; TRANSPORTE, MOBILIZAÇÃO E DESMOBILIZAÇÃO DOS MÓDULOS; AR CONDICIONADO SPLIT 12.000 BTUS, PARA ATENDER DEMANDA DO PLANO DE CONTIGÊNCIA COVID-19.",Rede Municipal de Saúde,03/04/2020,29/09/2020,06.167.644/0001-55 ,EMBRALOC LOCADORA E COMERCIO DE MAQUINAS E EQUIPAMENTOS EIRELI,"130.000,00 ","130.000,00 "
109,114-2020,,FMS - FUNDO MUNICIPAL DE SAÚDE - FMS,"GERENCIAMENTO, OPERACIONALIZACAO E EXECUCAO DAS ACOES E SERVICOS DE SAUDE NECESSARIOS PARA O ENFRENTAMENTO DA EMERGENCIA EM SAUDE PUBLICA DE IMPORTANCIA INTERNACIONAL, DECORRENTE DO NOVO CORONAVIRUS (COVID-19), NO HOSPITAL PROVISORIO DO RECIFE - UNIDADE AURORA. CONTRATO DE GESTAO 10/2020.",Hospital Provisório do Recife- Aurora,30/03/2020,29/09/2020,10.894.988/0001-33 ,SOCIEDADE PERNAMBUCANA DE COMBATE AO CANCER,"47.050.021,44 ","47.050.021,44 "
110,115-2020,,FMS - FUNDO MUNICIPAL DE SAÚDE - FMS,"CONTRATO DE GESTAO PARA GERENCIAMENTO DE SERVIÇOS DE SAÚDE - COVID-19, HOSPITAL PROVISÓRIO BASE IMBIRIBEIRA.",Hospital Provisório do Recife- Imbiribeira,30/03/2020,29/09/2020,28.399.030/0001-31 ,INSTITUTO HUMANIZE DE ASSISTENCIA E RESPONSABILIDADE SOCIAL,"34.028.654,07 ","34.028.654,07 "
111,116-2020,,FMS - FUNDO MUNICIPAL DE SAÚDE - FMS,"GERENCIAMENTO, OPERACIONALIZAÇÃO E EXECUÇÃO DAS AÇÕES E SERVIÇOS DE SAÚDE PARA O HOSPITAL PROVISÓRIO DO RECIFE-UNIDADE COELHOS COVID-19. DISPENSA LICITACAO 116/2020.",Hospital Provisório do Recife- Coelhos,30/03/2020,29/09/2020,09.039.744/0001-94 ,FUNDACAO PROFESSOR MARTINIANO FERNANDES IMIP HOSPITALAR,"71.269.452,48 ","71.269.452,48 "
112,117-2020,,FMS - FUNDO MUNICIPAL DE SAÚDE - FMS,"Saco para obito infantil; saco para obito juvenil; saco para obito adulto; saco para obito recém nascido, para atender demanda do Plano de Contigência COVID-19.",Rede Municipal de Saúde,31/03/2020,30/09/2020,15.227.236/0001-32 ,ATOS MEDICA COMERCIO E REPRESENTACAO DE PRODUTOS MEDICOS HOSPITALARES LTDA,"379.500,00 ","379.500,00 "
113,118-2020,,FMS - FUNDO MUNICIPAL DE SAÚDE - FMS,"SISTEMA FECHADO ASPIRAÇÃO TRAQUEAL, PARA ATENDER DEMANDA DO PLANO DE CONTIGÊNCIA COVID-19.",Rede Municipal de Saúde,31/03/2020,30/09/2020,07.626.776/0001-60 ,CIRURGICA SAO FELIPE PRODUTOS PARA SAUDE EIRELI EPP,"1.496.400,00 ","1.496.400,00 "
114,119-2020,,FMS - FUNDO MUNICIPAL DE SAÚDE - FMS,"AVENTAIS DESCARTÁVEIS, PARA ATENDER DEMANDA DO PLANO DE CONTIGÊNCIA COVID-19.",Rede Municipal de Saúde,31/03/2020,30/09/2020,15.453.449/0001-82 ,RESGATECNICA COMERCIO DE EQUIPAMENTOS DE RESGATE LTDA ME,"36.000,00 ","36.000,00 "
115,122-2020,,FMS - FUNDO MUNICIPAL DE SAÚDE - FMS,"MONITORES MULTIPARAMÉTRICOS DE TRANSPORTE, PARA ATENDER DEMANDA DO PLANO DE CONTIGÊNCIA COVID-19.",Rede Municipal de Saúde,16/04/2020,30/09/2020,27.705.997/0001-31 ,MEDICALMED REPRESENTACOES IMPORTACAO E EXPORTACAO DE PRODUTOS HOSPITALARES LTDA,"930.000,00 ","930.000,00 "
116,123-2020,Ret 123-2020,FMS - FUNDO MUNICIPAL DE SAÚDE - FMS,"MATEIAIS MÉDICOS HOSPITALARES E MATERIAIS FAMACOLÓGICOS, PARA ATENDER DEMANDA DO PLANO DE CONTIGÊNCIA COVID-19.",Rede Municipal de Saúde,03/04/2020,01/10/2020,24.994.990/0001-99 ,FOXMED MEDICAMENTOS E PRODUTOS HOSPITALARES LTDA,"402.397,50 ","13.207.307,50 "
117,123-2020,Ret 123-2020,FMS - FUNDO MUNICIPAL DE SAÚDE - FMS,"MATEIAIS MÉDICOS HOSPITALARES E MATERIAIS FAMACOLÓGICOS, PARA ATENDER DEMANDA DO PLANO DE CONTIGÊNCIA COVID-19.",Rede Municipal de Saúde,03/04/2020,,15.161.670/0001-67 ,FACIMED COMERCIO E REPRESENTACOES EIRELI,"6.691.470,00 ",
118,123-2020,Ret 123-2020,FMS - FUNDO MUNICIPAL DE SAÚDE - FMS,"MATEIAIS MÉDICOS HOSPITALARES E MATERIAIS FAMACOLÓGICOS, PARA ATENDER DEMANDA DO PLANO DE CONTIGÊNCIA COVID-19.",Rede Municipal de Saúde,03/04/2020,,36.441.494/0001-97 ,MULTIMEDICA DISTRIBUIDORA DE PRODUTOS PARA SAUDE EIRELI,"39.375,00 ",
119,123-2020,Ret 123-2020,FMS - FUNDO MUNICIPAL DE SAÚDE - FMS,"MATEIAIS MÉDICOS HOSPITALARES E MATERIAIS FAMACOLÓGICOS, PARA ATENDER DEMANDA DO PLANO DE CONTIGÊNCIA COVID-19.",Rede Municipal de Saúde,03/04/2020,,05.267.928/0001-50 ,GOLDMEDIC PRODUTOS MEDICOS HOSPITALARES EIRELI,"2.815,00 ",
120,123-2020,Ret 123-2020,FMS - FUNDO MUNICIPAL DE SAÚDE - FMS,"MATEIAIS MÉDICOS HOSPITALARES E MATERIAIS FAMACOLÓGICOS, PARA ATENDER DEMANDA DO PLANO DE CONTIGÊNCIA COVID-19.",Rede Municipal de Saúde,03/04/2020,,27.970.162/0001-09 ,SAUDE BRASIL COMERCIO DE MATERIAIS MEDICOS EIRELI,"5.588.750,00 ",
121,123-2020,Ret 123-2020,FMS - FUNDO MUNICIPAL DE SAÚDE - FMS,"MATEIAIS MÉDICOS HOSPITALARES E MATERIAIS FAMACOLÓGICOS, PARA ATENDER DEMANDA DO PLANO DE CONTIGÊNCIA COVID-19.",Rede Municipal de Saúde,03/04/2020,,05.864.669/0001-45 ,DISMAP - PRODUTOS PARA A SAUDE LTDA EPP,"482.500,00 ",
122,124-2020,,FMS - FUNDO MUNICIPAL DE SAÚDE - FMS,"""LOCAÇÃO DE APARELHOS DE AR CONDICIONADO TIPO SPLIT, COM INSTALAÇÃO E MANUTENÇÃO PREVENTIVA E CORRETIVA, PARA ATENDER DEMANDA DO PLANO DE CONTIGÊNCIA COVID-19"".",Rede Municipal de Saúde,07/04/2020,30/09/2020,26.081.685/0001-31 ,CG REFRIGERAÇÕES LTDA,"319.680,00 ","319.680,00 "
123,125-2020,,FMS - FUNDO MUNICIPAL DE SAÚDE - FMS,"SISTEMA FECHADO ASPIRAÇÃO TRAQUEAL, PARA ATENDER DEMANDA DO PLANO DE CONTIGÊNCIA COVID-19.",Rede Municipal de Saúde,01/04/2020,30/10/2020,34.680.592/0001-51 ,BRASIL DEVICES EQUIPAMANENTOS HOSPITALARES EIRELI,"718.100,00 ","718.100,00 "
124,126-2020,,FMS - FUNDO MUNICIPAL DE SAÚDE - FMS,"CAMA HOSPITALAR FAWLER, BIOMBO DUPLO, ESCADA CLÍNICA, CARRO MACA HOSPITALAR, MESA AUXILIAR, PARA ATENDER DEMANDA DO PLANO DE CONTIGÊNCIA COVID-19.",Rede Municipal de Saúde,01/04/2020,30/09/2020,27.985.682/0001-95 ,FORMEDIC COMERCIO DE MEDICAMENTOS EIRELI,"1.229.050,00 ","1.229.050,00 "
125,127-2020,Rev 127-2020,FMS - FUNDO MUNICIPAL DE SAÚDE - FMS,"PARA ATENDER AS NECESSIDADES DA REDE MUNICIPAL DE SAUDE, CONF. CI 154/2020 - GAAH - COVID 19 - DL 127/2020 - CC 2020.4801.01.1006.0063.",Rede Municipal de Saúde,-,30/09/2020,27.970.162/0001-09 ,SAUDE BRASIL COMERCIO DE MATERIAIS MEDICOS EIRELI,- ,- 
126,128-2020,,FMS - FUNDO MUNICIPAL DE SAÚDE - FMS,"ESPAÇADPR COM MÁSCARA INFANTIL ULTRAFLEXÍVEL BIVALVULADA, PARA ATENDER DEMANDA DO PLANO DE CONTIGÊNCIA COVID-19.",Rede Municipal de Saúde,03/04/2020,02/10/2020,12.889.035/0001-02 ,INOVAMED COMERCIO DE MEDICAMENTOS LTDA,"493.000,00 ","493.000,00 "
127,129-2020,Rev 129-2020,FMS - FUNDO MUNICIPAL DE SAÚDE - FMS,"VENTILADOR PULMONAR ADULTO E PEDIÁTRICO, PARA ATENDER DEMANDA DO PLANO DE CONTIGÊNCIA COVID-19.",Rede Municipal de Saúde,-,05/09/2020,35.177.684/0001-86 ,JUVANETE BARRETO FREIRE 57432449791,- ,- 
128,130-2020,,FMS - FUNDO MUNICIPAL DE SAÚDE - FMS,"AQUISIÇÃO EMERGENCIAL DE BLENDER, PARA ATENDER DEMANDA DO PLANO DE CONTIGÊNCIA COVID-19.",Rede Municipal de Saúde,16/04/2020,02/10/2020,20.782.880/0001-02 ,NORDESTE MEDICAL REPRESENTACAO IMPORTACAO E EXPORTACAO DE PRODUTOS HOSTIPALARES LTDA,"193.450,00 ","193.450,00 "
129,131-2020,,FMS - FUNDO MUNICIPAL DE SAÚDE - FMS,"BOTAS DE COMPRESSÃO PNEUMÁTICA, PARA ATENDER DEMANDA DO PLANO DE CONTIGÊNCIA COVID-19.",Rede Municipal de Saúde,03/04/2020,02/10/2020,07.626.776/0001-60 ,CIRURGICA SAO FELIPE PRODUTOS PARA SAUDE EIRELI EPP,"1.537.500,00 ","1.537.500,00 "
130,132-2020,,FMS - FUNDO MUNICIPAL DE SAÚDE - FMS,"EQUIPO PARA BOMBA DE INFUSÃO, EQUIPO FOTOSSENSÍVEL PARA BOMBA DE INFUSÃO, EQUIPO DE NUTRIÇÃO ENTERAL PARA BOMBA DE INFUSÃO, PARA ATENDER DEMANDA DO PLANO DE CONTIGÊNCIA COVID-19.",Rede Municipal de Saúde,03/04/2020,02/10/2020,58.426.628/0001-33 ,SAMTRONIC INDUSTRIA E COMERCIO LTDA,"9.302.500,00 ","9.302.500,00 "
131,133-2020,,FMS - FUNDO MUNICIPAL DE SAÚDE - FMS,"LOCAÇÃO DE RÁDIO COMUNICADOR, PARA ATENDER DEMANDA DO PLANO DE CONTIGÊNCIA COVID-19.",Rede Municipal de Saúde,09/04/2020,02/10/2020,04.821.172/0001-87 ,COSTA & CESAR COMERCIO E SERVICO DE TECNOLOGIA LTDA EPP,"54.000,00 ","54.000,00 "
132,134-2020,,FMS - FUNDO MUNICIPAL DE SAÚDE - FMS,"FORNECIMENTO DE GASES MEDICINAIS (OXIGÊNIO LÍQUIDO), PARA ATENDER DEMANDA DO PLANO DE CONTIGÊNCIA COVID-19.",Rede Municipal de Saúde,09/04/2020,05/10/2020,24.380.578/0020-41 ,WHITE MARTINS GASES INDUSTRIAIS DO NORDESTE LTDA,"2.400.000,00 ","2.400.000,00 "
133,135-2020,,FMS - FUNDO MUNICIPAL DE SAÚDE - FMS,"CONTEINER REFRIGERADO, PARA ATENDER DEMANDA DO PLANO DE CONTIGÊNCIA COVID-19.",Rede Municipal de Saúde,16/04/2020,06/10/2020,11.534.008/0001-54 ,DELTA CONTEINERES SA,"90.000,00 ","90.000,00 "
134,136-2020,,FMS - FUNDO MUNICIPAL DE SAÚDE - FMS,"LOCAÇÃO DE GERADOR PARA HOSPITAL DA MULHER, POLICLÍNICAS, UPAS E UPA-E,  PARA ATENDER DEMANDA DO PLANO DE CONTIGÊNCIA COVID-19.",Rede Municipal de Saúde,09/04/2020,06/10/2020,14.167.017/0001-42 ,GERAMAIS LOCACAO DE GERADORES LTDA ME,"181.200,00 ","181.200,00 "
135,137-2020,,FMS - FUNDO MUNICIPAL DE SAÚDE - FMS,"LOCAÇÃO DE GERADOR PARA HOSPITAL PROVISÓRIO DA IMBIRIBEIRA,  PARA ATENDER DEMANDA DO PLANO DE CONTIGÊNCIA COVID-19.",Hospital Provisório do Recife- Imbiribeira,09/04/2020,06/10/2020,14.167.017/0001-42 ,GERAMAIS LOCACAO DE GERADORES LTDA ME,"39.600,00 ","39.600,00 "
136,138-2020,,FMS - FUNDO MUNICIPAL DE SAÚDE - FMS,"AQUISIÇÃO DE MEDICAMENTOS, PARA ATENDER DEMANDA DO PLANO DE CONTIGÊNCIA COVID-19.",Rede Municipal de Saúde,07/04/2020,06/10/2020,08.778.201/0001-26 ,DROGAFONTE LTDA,"491.440,00 ","1.027.690,00 "
137,138-2020,,FMS - FUNDO MUNICIPAL DE SAÚDE - FMS,"AQUISIÇÃO DE MEDICAMENTOS, PARA ATENDER DEMANDA DO PLANO DE CONTIGÊNCIA COVID-19.",Rede Municipal de Saúde,07/04/2020,,03.817.043/0001-52 ,PHARMAPLUS LTDA,"536.250,00 ",
138,139-2020,,FMS - FUNDO MUNICIPAL DE SAÚDE - FMS,"AQUISIÇÃO DE MEDICAMENTOS, PARA ATENDER DEMANDA DO PLANO DE CONTIGÊNCIA COVID-19.",Rede Municipal de Saúde,07/04/2020,06/10/2020,09.607.807/0001-61 ,INJEFARMA CAVALCANTI E SILVA DISTRIBUIDORA LTDA EPP,"1.294.736,10 ","1.767.624,60 "
139,139-2020,,FMS - FUNDO MUNICIPAL DE SAÚDE - FMS,"AQUISIÇÃO DE MEDICAMENTOS, PARA ATENDER DEMANDA DO PLANO DE CONTIGÊNCIA COVID-19.",Rede Municipal de Saúde,07/04/2020,,08.778.201/0001-26 ,DROGAFONTE LTDA,"472.888,50 ",
140,140-2020,,FMS - FUNDO MUNICIPAL DE SAÚDE - FMS,"MÁSCARA RESPIRADOR N95, PARA ATENDER DEMANDA DO PLANO DE CONTIGÊNCIA COVID-19.",Rede Municipal de Saúde,07/04/2020,06/10/2020,45.985.371/0062-20 ,3M DO BRASIL LTDA,"24.053,00 ","24.053,00 "
141,142-2020,,FMS - FUNDO MUNICIPAL DE SAÚDE - FMS,"FORNECIMENTO DE DIETAS ENTERAIS E PARENTERAIS PARA PACIENTES INTERNADOS NOS HOSPITAIS PROVISÓRIOS DO RECIFE,  PARA ATENDER DEMANDA DO PLANO DE CONTIGÊNCIA COVID-19.",Hospital Provisório do Recife- Coelhos/ Imbiribeira e Aurora,16/04/2020,08/10/2020,22.940.455/0001-20 ,MOURA & MELO COMERCIO E SERVICOS LTDA ME - SIGMANUTRI,"2.712.060,00 ","2.712.060,00 "
142,143-2020,,FMS - FUNDO MUNICIPAL DE SAÚDE - FMS,"DESINFECTANTE ÁCIDO PERACÉTICO EM SOLUÇÃO,  PARA ATENDER DEMANDA DO PLANO DE CONTIGÊNCIA COVID-19.",Rede Municipal de Saúde,09/04/2020,08/10/2020,02.975.570/0001-22 ,DIET FOOD NUTRICAO LTDA,"30.960,00 ","30.960,00 "
143,144-2020,Ret 144-2020,FMS - FUNDO MUNICIPAL DE SAÚDE - FMS,"SISTEMA FECHADO ASPIRAÇÃO TRAQUEAL, PARA ATENDER DEMANDA DO PLANO DE CONTIGÊNCIA COVID-19.",Rede Municipal de Saúde,09/04/2020,08/10/2020,07.626.776/0001-60 ,CIRURGICA SAO FELIPE PRODUTOS PARA SAUDE EIRELI EPP,"572.889,00 ","572.889,00 "
144,145-2020,,FMS - FUNDO MUNICIPAL DE SAÚDE - FMS,"AQUISIÇÃO DE MEDICAMENTOS, PARA ATENDER DEMANDA DO PLANO DE CONTIGÊNCIA COVID-19.",Rede Municipal de Saúde,15/04/2020,13/10/2020,49.324.221/0020-77 ,FRESENIUS KABI BRASIL LTDA,"2.931.712,00 ","11.013.678,30 "
145,145-2020,,FMS - FUNDO MUNICIPAL DE SAÚDE - FMS,"AQUISIÇÃO DE MEDICAMENTOS, PARA ATENDER DEMANDA DO PLANO DE CONTIGÊNCIA COVID-19.",Rede Municipal de Saúde,15/04/2020,,12.889.035/0001-02 ,INOVAMED COMERCIO DE MEDICAMENTOS LTDA,"24.446,00 ",
146,145-2020,,FMS - FUNDO MUNICIPAL DE SAÚDE - FMS,"AQUISIÇÃO DE MEDICAMENTOS, PARA ATENDER DEMANDA DO PLANO DE CONTIGÊNCIA COVID-19.",Rede Municipal de Saúde,14/04/2020,,11.563.145/0001-17 ,COMERCIAL MOSTAERT LTDA,"1.199.591,50 ",
147,145-2020,,FMS - FUNDO MUNICIPAL DE SAÚDE - FMS,"AQUISIÇÃO DE MEDICAMENTOS, PARA ATENDER DEMANDA DO PLANO DE CONTIGÊNCIA COVID-19.",Rede Municipal de Saúde,15/04/2020,,60.665.981/0009-75 ,UNIAO QUIMICA FARMACEUTICA NACIONAL SA,"23.819,40 ",
148,145-2020,,FMS - FUNDO MUNICIPAL DE SAÚDE - FMS,"AQUISIÇÃO DE MEDICAMENTOS, PARA ATENDER DEMANDA DO PLANO DE CONTIGÊNCIA COVID-19.",Rede Municipal de Saúde,15/04/2020,,44.734.671/0001-51 ,CRISTALIA PRODUTOS QUIMICOS FARMACEUTICOS LTDA,"402.003,70 ",
149,145-2020,,FMS - FUNDO MUNICIPAL DE SAÚDE - FMS,"AQUISIÇÃO DE MEDICAMENTOS, PARA ATENDER DEMANDA DO PLANO DE CONTIGÊNCIA COVID-19.",Rede Municipal de Saúde,15/04/2020,,49.324.221/0008-80 ,FRESENIUS KABI BRASIL LTDA,"3.225.976,00 ",
150,145-2020,,FMS - FUNDO MUNICIPAL DE SAÚDE - FMS,"AQUISIÇÃO DE MEDICAMENTOS, PARA ATENDER DEMANDA DO PLANO DE CONTIGÊNCIA COVID-19.",Rede Municipal de Saúde,15/04/2020,,08.778.201/0001-26 ,DROGAFONTE LTDA,"2.027.129,90 ",
151,145-2020,,FMS - FUNDO MUNICIPAL DE SAÚDE - FMS,"AQUISIÇÃO DE MEDICAMENTOS, PARA ATENDER DEMANDA DO PLANO DE CONTIGÊNCIA COVID-19.",Rede Municipal de Saúde,15/04/2020,,07.484.373/0001-24 ,UNI HOSPITALAR LTDA,"551.889,00 ",
152,145-2020,,FMS - FUNDO MUNICIPAL DE SAÚDE - FMS,"AQUISIÇÃO DE MEDICAMENTOS, PARA ATENDER DEMANDA DO PLANO DE CONTIGÊNCIA COVID-19.",Rede Municipal de Saúde,15/04/2020,,03.817.043/0001-52 ,PHARMAPLUS LTDA,"627.110,80 ",
153,146-2020,,FMS - FUNDO MUNICIPAL DE SAÚDE - FMS,"COLCHÃO D-28, PARA ATENDER DEMANDA DO PLANO DE CONTIGÊNCIA COVID-19.",Rede Municipal de Saúde,14/04/2020,13/10/2020,24.846.094/0001-82 ,MEL INDUSTRIA DE COLCHOES LTDA - NORDESTE COLCHOES,"32.250,00 ","32.250,00 "
154,147-2020,Ret 147-2020,FMS - FUNDO MUNICIPAL DE SAÚDE - FMS,"AEROPUFF ESTÉRIL,  PARA ATENDER DEMANDA DO PLANO DE CONTIGÊNCIA COVID-19.",Rede Municipal de Saúde,15/04/2020,13/10/2020,33.068.320/0001-32 ,ASCLEPIOS EQUIPAMENTOS HOSPITALARES EIRELI,"390.000,00 ","390.000,00 "
155,148-2020,,FMS - FUNDO MUNICIPAL DE SAÚDE - FMS,"PARA ATENDER AS NECESSIDADES DA REDE MUNICIPAL DE SAUDE, CONF. CI 108/2020 - LABORATORIO MUNICIPAL - COVID 19 - DL 148/2020 - CC 2020.4801.01.1008.0061.",Rede Municipal de Saúde,16/04/2020,13/10/2020,01.663.156/0001-15 ,VITALLIS DIAGNOSTICA EIRELI,"403.200,00 ","403.200,00 "
156,149-2020,,FMS - FUNDO MUNICIPAL DE SAÚDE - FMS,"SISTEMA RESPIRATÓRIO EXTERNO, PARA ATENDER DEMANDA DO PLANO DE CONTIGÊNCIA COVID-19.",Rede Municipal de Saúde,15/04/2020,14/10/2020,20.782.880/0001-02 ,NORDESTE MEDICAL REPRESENTACAO IMPORTACAO E EXPORTACAO DE PRODUTOS HOSTIPALARES LTDA,"171.500,00 ","171.500,00 "
157,150-2020,,FMS - FUNDO MUNICIPAL DE SAÚDE - FMS,"AVENTAL DESCARTÁVEL , PARA ATENDER DEMANDA DO PLANO DE CONTIGÊNCIA COVID-19",Rede Municipal de Saúde,15/04/2020,15/10/2020,02.871.166/0001-09 ,AJS COMERCIO E REPRESENTACOES LTDA,"7.500.000,00 ","7.500.000,00 "
158,151-2020,Ret 151-2020,FMS - FUNDO MUNICIPAL DE SAÚDE - FMS,"CÂMARA FRIA PARA 2 (DOIS) CORPOS, PARA ATENDER DEMANDA DO PLANO DE CONTIGÊNCIA COVID-19",Rede Municipal de Saúde,24/04/2020,15/10/2020,01.754.239/0004-62 ,REFRIGERACAO DUFRIO COMERCIO E IMPORTACAO LTDA,"165.000,00 ","165.000,00 "
159,152-2020,,FMS - FUNDO MUNICIPAL DE SAÚDE - FMS,"SISTEMA FECHADO ASPIRAÇÃO TRAQUEAL, PARA ATENDER DEMANDA DO PLANO DE CONTIGÊNCIA COVID-19",Rede Municipal de Saúde,14/05/2020,16/10/2020,07.626.776/0001-60 ,CIRURGICA SAO FELIPE PRODUTOS PARA SAUDE EIRELI EPP,"2.365.000,00 ","2.365.000,00 "
160,153-2020,,FMS - FUNDO MUNICIPAL DE SAÚDE - FMS,"SERVÇOS DE INSTALAÇÃO DE PONTO DE LÓGICA E SERVIÇO DE INSTALAÇÃO DE PONTO DE REDE WI-FI NOS TRÊS HOSPITAIS DE CAMPANHA, PARA ATENDER DEMANDA DO PLANO DE CONTIGÊNCIA COVID-19.",Rede Municipal de Saúde,25/04/2020,21/10/2020,09.662.060/0001-44 ,PRECISE MULTIFORME TECNOLOGIA LTDA,"558.540,00 ","558.540,00 "
161,154-2020,,FMS - FUNDO MUNICIPAL DE SAÚDE - FMS,"MINI GERADOR DE AEROSOL A FRIO UBV, PARA ATENDER DEMANDA DO PLANO DE CONTIGÊNCIA COVID-19",Rede Municipal de Saúde,29/04/2020,27/10/2020,01.320.430/0001-53 ,MULTIAVE LTDA - TECMULTI SAUDE AMBIANTEL,"29.800,00 ","29.800,00 "
162,155-2020,,FMS - FUNDO MUNICIPAL DE SAÚDE - FMS,AQUISICAO DE ATOMIZADOR COSTAL MOTORIZADO PARA USO DE AGENTES DE SAUDE AMBIENTAL NAS ACOES DE COMBATE AO COVID-19 PARA ATENDER A SECRETARIA DE SAUDE DO RECIFE.,Rede Municipal de Saúde,29/04/2020,28/10/2020,01.320.430/0001-53 ,MULTIAVE LTDA - TECMULTI SAUDE AMBIANTEL,"26.675,00 ","26.675,00 "
163,156-2020,,FMS - FUNDO MUNICIPAL DE SAÚDE - FMS,"ÁLCOOL ETILICO 70%,  PARA ATENDER DEMANDA DO PLANO DE CONTIGÊNCIA COVID-19.",Rede Municipal de Saúde,24/04/2020,22/10/2020,34.809.258/0001-55 ,STELAR COMERCIO ATACADISTA DE MEDICAMENTOS LTDA,"75.000,00 ","75.000,00 "
164,158-2020,,FMS - FUNDO MUNICIPAL DE SAÚDE - FMS,"MÁSCARA RESPIRADOR N95, PARA ATENDER DEMANDA DO PLANO DE CONTIGÊNCIA COVID-19.",Rede Municipal de Saúde,24/04/2020,23/10/2020,33.537.378/0001-88 ,VR INDUSTRIA E COMERCIO E INSTALACAO DE GRAMA DO BRASIL LTDA,"570.000,00 ","570.000,00 "
165,161-2020,,FMS - FUNDO MUNICIPAL DE SAÚDE - FMS,"FORNECIMENTO DE ALIMENTAÇÕES TRANSPORTADAS AOS PACIENTES E PROFISSIONAIS DOS HOSPITAIS PROVISÓRIOS DO RECIFE,  PARA ATENDER DEMANDA DO PLANO DE CONTIGÊNCIA COVID-19",Hospital Provisório do Recife- Coelhos/ Imbiribeira e Aurora,16/04/2020,28/10/2020,11.164.874/0001-09 ,RC NUTRY ALIMENTACAO LTDA,"10.364.928,12 ","10.364.928,12 "
166,163-2020,,FMS - FUNDO MUNICIPAL DE SAÚDE - FMS,"PRESTAÇÃO DE SERVIÇOS ADUANEIROS E DE LOGÍSTICA DE IMPORTAÇÃO, PARA ATENDER DEMANDA DO PLANO DE CONTIGÊNCIA COVID-19",Rede Municipal de Saúde,04/05/2020,03/11/2020,11.192.376/0001-61 ,MARCOS ANDRE ALBUQUERQUE DA COSTA,"22.025,00 ","22.025,00 "
167,165-2020,,FMS - FUNDO MUNICIPAL DE SAÚDE - FMS,"PARA ATENDER AS NECESSIDADES DA REDE MUNICIPAL DE SAUDE, CONF. CI 14/2020 - DEAF - COVID 19 - DL 165/2020 - CC CONFORME PLANILHA EM ANEXO.",Rede Municipal de Saúde,09/05/2020,06/11/2020,07.901.782/0002-60 ,SAFET MED ASSESSORIA MEDICAL EIRELI,"2.178.000,00 ","2.178.000,00 "
168,166-2020,,FMS - FUNDO MUNICIPAL DE SAÚDE - FMS,"CIRCUITO PACIENTE ADULTO SILICONE, PARA ATENDER DEMANDA DO PLANO DE CONTIGÊNCIA COVID-19",Rede Municipal de Saúde,07/05/2020,06/11/2020,12.796.424/0001-93 ,HLBF COMERCIO E SERVICOS DE EQUIPAMENTOS MEDICOS E HOSPITALARES EIRELI,"68.500,00 ","68.500,00 "
169,168-2020,,FMS - FUNDO MUNICIPAL DE SAÚDE - FMS,"BLENDER PARA ALIMENTAÇÃO DE O2 E AR COMPRIMIDO, PARA ATENDER DEMANDA DO PLANO DE CONTIGÊNCIA COVID-19",Rede Municipal de Saúde,07/05/2020,06/11/2020,20.782.880/0001-02 ,NORDESTE MEDICAL REPRESENTACAO IMPORTACAO E EXPORTACAO DE PRODUTOS HOSTIPALARES LTDA,"47.450,00 ","47.450,00 "
170,170-2020,,FMS - FUNDO MUNICIPAL DE SAÚDE - FMS,"OXÍMETRO PORTÁTIL DE DEDO, PARA ATENDER DEMANDA DO PLANO DE CONTIGÊNCIA COVID-19.",Rede Municipal de Saúde,07/05/2020,06/11/2020,20.782.880/0001-02 ,NORDESTE MEDICAL REPRESENTACAO IMPORTACAO E EXPORTACAO DE PRODUTOS HOSTIPALARES LTDA,"18.150,00 ","18.150,00 "
171,171-2020,,FMS - FUNDO MUNICIPAL DE SAÚDE - FMS,"AQUISIÇÃO DE VENTILADOR PULMONAR ADULTO E PEDIÁTRICO, PARA ATENDER DEMANDA DO PLANO DE CONTIGÊNCIA COVID-19",Rede Municipal de Saúde,08/05/2020,07/11/2020,18.552.169/0001-10 ,D&I COMERCIO DE EQUIPAMENTOS MEDICOS LTDA,"2.251.710,00 ","2.251.710,00 "
172,172-2020,,FMS - FUNDO MUNICIPAL DE SAÚDE - FMS,"REALIZAÇÃO DE ATIVIDADES DE PESQUISA E INOVAÇÃO QUE ENVOLVAM RISCO TECNOLÓGICO, PARA ATENDER DEMANDA DO PLANO DE CONTIGÊNCIA COVID-19",Rede Municipal de Saúde,08/05/2020,07/11/2020,04.203.075/0001-20 ,NUCLEO DE GESTAO DO PORTO DIGITAL,"1.443.502,81 ","1.443.502,81 "
173,174-2020,,FMS - FUNDO MUNICIPAL DE SAÚDE - FMS,"AQUISICAO DE ALCOOL 70%, PARA ATENDER AS NECESSIDADES DA REDE MUNICIPAL DE SAÚDE, CONFORME CI 19/2020-DEAF/SS, DE ACORDO COM A DL 174/2020. CC 2020.4801.01.1000.0063 - COVID 19.",Rede Municipal de Saúde,12/05/2020,11/11/2020,21.559.832/0001-12 ,BELLOBELLA INDUSTRIA DE COSMETICOS LTDA,"180.000,00 ","180.000,00 "
174,176 - 2020,,FMS - FUNDO MUNICIPAL DE SAÚDE - FMS,"FORNECIMENTO DE MATERIAL DE PROTEÇÃO E SEGURANÇA - MACACÃO BRANCO, PARA ATENDER DEMANDA DO PLANO DE CONTIGÊNCIA COVID-19.",Rede Municipal de Saúde,13/05/2020,12/11/2020,16.692.627/0001-90 ,7827 - LND COMERCIO DE MATERIAL DE CONSTRUCAO EIRELI,"975.000,00 ","975.000,00 "
175,178-2020,,FMS - FUNDO MUNICIPAL DE SAÚDE - FMS,"MATERIAL MÉDICO HOSPITALAR, PARA ATENDER AS NECESSIDADES DA REDE MUNICIPAL DE SAÚDE, CONFORME CI 473/2020-GGAF, DE ACORDO COM A DL 178/2020. CC 2020.4801.01.0802.0077 - COVID 19.",Rede Municipal de Saúde,18/05/2020,17/11/2020,24.441.206/0001-15 ,5553 - TRON CONTROLES ELETRICOS LTDA,"31.250,00 ","31.250,00 "
176,179 - 2020,,FMS - FUNDO MUNICIPAL DE SAÚDE - FMS,"PARA ATENDER AS NECESSIDADES DA REDE MUNICIPAL DE SAUDE, CONF. CI 533/2020 - GER. GERAL DE ASSISTENCIA FARMACEUTICA - COVID 19 - DL 179/2020 - CC 2020.4801.01.0802.0077.",Rede Municipal de Saúde,19/05/2020,18/11/2020,02.600.770/0001-09 ,8355 - COMERCIAL VALFARMA EIRELI,"44.000,00 ","44.000,00 "
177,181 - 2020,,FMS - FUNDO MUNICIPAL DE SAÚDE - FMS,AQUISICAO DE TONERS E FOTOCONDUTORES PARA ATENDER AS NECESSIDADES DA REDE MUNICIPAL DE SAUDE CONF CI 031/2020 GGTI DL 181/2020 EM VIRTUDE DAS ACOES DE COMBATE COVID-19 CC 2020.4801.01.1007.0108,Rede Municipal de Saúde,20/05/2020,19/11/2020,23.218.974/0001-41 ,9434 - OLINDAINFO COMERCIO VAREJISTA DE INFORMATICA EIRELI ME,"17.317,00 ","17.317,00 "
178,182-2020,,FMS - FUNDO MUNICIPAL DE SAÚDE - FMS,"SERVIÇO EMERGENCIAL DE INSTALAÇÕES HIDROSANITÁRIAS, MONTAGEM DE SUBESTAÇÃO E ALIMENTAÇÃO ELÉTRICA PARA 120 LEITOS DE ENFERMAGEM DO COVID-19. DISPENSA LICITAÇÃO Nº 182/2020.",Hospital da Mulher do Recife,21/05/2020,15/07/2020,05.205.071/0001-44 ,49 - ALCA ENGENHARIA LTDA,"221.306,05 ","221.306,05 "
179,185 - 2020,,FMS - FUNDO MUNICIPAL DE SAÚDE - FMS,"AQUISICAO DE ALCOOL ETÍLICOO EM GEL 70%, PARA ATENDER AS NECESSIDADES DA REDE MUNICIPAL DE SAÚDE, CONFORME CI 27/2020-DEAF, DE ACORDO COM A DL 185/2020. CC 2020.4801.01.1000.0063 - COVID 19.",Rede Municipal de Saúde,25/05/2020,24/11/2020,21.559.832/0001-12 ,10720 - BELLOBELLA INDUSTRIA DE COSMETICOS LTDA,"200.000,00 ","200.000,00 "
180,184-2020,,FMS - FUNDO MUNICIPAL DE SAÚDE - FMS,"SERVICO DE LOCACAO DE EMPILHADEIRA A GAS CAPACIDADE DE 2.500 TORRE COM ELEVACAO MINIMA 4M, ABASTECIMENTO POR CONTA DA CONTATADA PARA AS ACOES DE COMBATE COVID-19 CONF CI N 014/2020 - GER. ALMOX. DL 184/2020",Rede Municipal de Saúde,26/05/2020,21/11/2020,04.602.624/0001-30 ,8679 - MOVITRACAO EQUIPAMENTOS LTDA EPP,"34.080,00 ","34.080,00 "
181,188-2020,,FMS - FUNDO MUNICIPAL DE SAÚDE - FMS,LOCACAO DE TOLDOS (GRID) PARA ATENDER AS NECESSIDADES DA REDE MUNICIPAL DE SAUDE CONF CI N 261/2020 - GA - DL 188/2020 EM VIRTUDE DAS ACOES DE COMBATE COVID-19,Rede Municipal de Saúde,15/06/2020,30/11/2020,12.851.941/0001-15 ,2421 - HAPPY ESTRUTURAS E SERVICOS EIRELI EPP,"420.000,00 ","420.000,00 "
182,189-2020,,FMS - FUNDO MUNICIPAL DE SAÚDE - FMS,"PARA ATENDER AS NECESSIDADES DA REDE MUNICIPAL DE SAUDE, CONF. CI 31/2020 - DEAF - COVID 19 - DL 189/2020 - CC 2020.4801.01.1000.0063.",Rede Municipal de Saúde,26/06/2020,09/08/2020,02.357.251/0001-53 ,8436 - LIFEMED INDUSTRIAL DE EQUIPAMENTOS E ARTIGOS MEDICOS E HOSPITALARES SA,"5.300.000,00 ","5.300.000,00 "
183,04-2020,,FMS - FUNDO MUNICIPAL DE SAÚDE - FMS,"PARA ATENDER AS NECESSIDADES DA REDE MUNICIPAL DE SAUDE, CONF. CI 493/2020 - SAMU - COVID 19 - INEXIGIBILIDADE 04/2020 - CC CONFORME PLAN. ANEXO.",Rede Municipal de Saúde,25/05/2020,21/11/2020,20.782.880/0001-02,NORDESTE MEDICAL REPRESENTACAO IMPORTACAO E EXPORTACAO DE PRODUTOS HOSTIPALARES LTDA,"30.573,00 ","30.573,00 "
184,54-2020,Ret 54-2020,FMS - FUNDO MUNICIPAL DE SAÚDE - FMS,LOCAÇÃO DE IMÓVEL-NÃO RESIDENCIAL INSTALAÇÂO DA UNIDADE PROVISORIA SAÚDE-SANTO AMARO COVID-19,Hospital Provisório do Recife- Aurora,20/03/2020,19/09/2020,11.574.316/0001-03 ,AJAM EMPREENDIMENTOS E PARTICIPACOES LTDA,"899.384,10 ","899.384,10 "
185,55-2020,Ret 55-2020,FMS - FUNDO MUNICIPAL DE SAÚDE - FMS,LOCAÇÃO DE IMOVEL NAO-RESIDENCIAL PARA INSTALAÇÃ ODA UNIDADE DE SAUDE PROVISORIA -IMBIRIBEIRA -COVID 19,Hospital Provisório do Recife- Imbiribeira,20/03/2020,19/09/2020,11.350.571/0001-72 ,GLE EMPREENDIMENTOS LTDA,"776.059,74 ","776.059,74 "
186,56-2020,,FMS - FUNDO MUNICIPAL DE SAÚDE - FMS,LOCAÇÃO DE IMÓVEL NÃO RESIDENCIAL- INSTALAÇÃO UNIDDE PROVISORIA DE SAÚDE COELHOS-COVID 19,Hospital Provisório do Recife- Coelhos,20/03/2020,19/09/2020,09.602.938/0001-56 ,PLENO IMOBILIARIA LTDA,"1.140.000,00 ","1.140.000,00 "
187,10-2020,,FMAS - FUNDO MUNICIPAL DE ASSISTÊNCIA SOCIAL - FMAS,SERVIÇOS DE CORRESPONDENCIA PARA ENFRENTAMENTO A COVID-19,"Secretaria Desenvolvimento Social, Juventude, Políticas sobre Drogas e Direitos Humanos",07/04/2020,07/09/2020,41.013.483/0001-46 ,199 - SERPOSTEL LTDA,"58.371,70","58.371,70"
188,4-2020,Ret 04-2020,FMAS - FUNDO MUNICIPAL DE ASSISTÊNCIA SOCIAL - FMAS,FORNECIMENTO DE CESTAS BÁSICAS - COVID- 19,"Secretaria Desenvolvimento Social, Juventude, Políticas sobre Drogas e Direitos Humanos",06/04/2020,15/09/2020,11.555.207/0001-49 ,MOV SUPRIMENTOS LTDA,"10.918.353,63 ","10.918.353,63 "
189,5-2020,Ret 05-2020,FMAS - FUNDO MUNICIPAL DE ASSISTÊNCIA SOCIAL - FMAS,AQUISIÇÃO DE MASCARAS DESCARTAVEIS - COVID - 19,"Secretaria Desenvolvimento Social, Juventude, Políticas sobre Drogas e Direitos Humanos",06/04/2020,15/09/2020,27.058.274/0001-98 ,JATOBARRETTO CENTRO DE DISTRIBUICAO LTDA,"99.000,00 ","99.000,00 "
190,6-2020,Ret 06-2020,FMAS - FUNDO MUNICIPAL DE ASSISTÊNCIA SOCIAL - FMAS,AQUISIÇÃO DE MATERIAL DE LIMPEZA PARA O ENFRENTAMENTO A COVID-19,"Secretaria Desenvolvimento Social, Juventude, Políticas sobre Drogas e Direitos Humanos",14/04/2020,17/09/2020,27.058.274/0001-98 ,JATOBARRETTO CENTRO DE DISTRIBUICAO LTDA,"136.191,26 ","136.191,26 "
191,7-2020,Ret 07-2020,FMAS - FUNDO MUNICIPAL DE ASSISTÊNCIA SOCIAL - FMAS,AQUISIÇÃO DE ÁLCOOL GEL - COVID - 19,"Secretaria Desenvolvimento Social, Juventude, Políticas sobre Drogas e Direitos Humanos",06/04/2020,19/09/2020,27.058.274/0001-98 ,JATOBARRETTO CENTRO DE DISTRIBUICAO LTDA,"50.000,00 ","50.000,00 "
192,8-2020,Ret 08-2020,FMAS - FUNDO MUNICIPAL DE ASSISTÊNCIA SOCIAL - FMAS,"FORNECIMENDO DE ÁLCOOL GEL 70%, PARA ENFRENTAMENTO DO COVID - 19","Secretaria Desenvolvimento Social, Juventude, Políticas sobre Drogas e Direitos Humanos",06/04/2020,30/09/2020,27.058.274/0001-98 ,JATOBARRETTO CENTRO DE DISTRIBUICAO LTDA,"75.000,00 ","75.000,00 "
193,9-2020,Ret 09-2020,FMAS - FUNDO MUNICIPAL DE ASSISTÊNCIA SOCIAL - FMAS,CARTA PERSONALIZADA EM MALA DIRETA PARA ENFRENTAMENTO AO COVID-19,"Secretaria Desenvolvimento Social, Juventude, Políticas sobre Drogas e Direitos Humanos",07/04/2020,07/09/2020,12.224.894/0001-82 ,GRAFICA E EDITORA CANAA LTDA,"42.426,26 ","42.426,26 "
194,11-2020,Ret 11-2020,FMAS - FUNDO MUNICIPAL DE ASSISTÊNCIA SOCIAL - FMAS,SERVIÇO FUNERAL - COVID-19,"Secretaria Desenvolvimento Social, Juventude, Políticas sobre Drogas e Direitos Humanos",17/04/2020,14/10/2020,08.658.338/0001-47 ,"PAX DOMINI SERVICOS
FUNERARIOS LTDA - PAX DOMINI","737.280,00 ","737.280,00 "
195,15-2020,Ret 15-2020,FMAS - FUNDO MUNICIPAL DE ASSISTÊNCIA SOCIAL - FMAS,AQUISIÇÃO DE MÁSCARA DESCARTÁVEL,"Secretaria Desenvolvimento Social, Juventude, Políticas sobre Drogas e Direitos Humanos",22/04/2020,13/10/2020,27.058.274/0001-98 ,"JATOBARRETTO CENTRO DE
DISTRIBUICAO LTDA","592.500,00 ","592.500,00 "
196,16-2020,Ret16-2020,FMAS - FUNDO MUNICIPAL DE ASSISTÊNCIA SOCIAL - FMAS,"AQUISIÇÃO DE DESCARTAVEIS, POTE PLASTICO, TALHERES E COPO PARA ÁGUA","Secretaria Desenvolvimento Social, Juventude, Políticas sobre Drogas e Direitos Humanos",27/04/2020,15/10/2020,34.333.903/0001-06 ,"FL COMERCIO ATACADISTA DE
ARTIGOS DE USO PESSOAL E DOMESTICO EIRELI","73.555,20 ","73.555,20 "
197,17-2020,Ret 17-2020,FMAS - FUNDO MUNICIPAL DE ASSISTÊNCIA SOCIAL - FMAS,SERVICO DE MONTAGEM DE ESTRUTURA E LOCAÇÃO DE EQUIPAMENTOS PARA DISTRIBUIÇÃO DE CESTAS BASICAS - COVID - 19,"Secretaria Desenvolvimento Social, Juventude, Políticas sobre Drogas e Direitos Humanos",27/04/2020,14/10/2020,02.860.590/0001-58 ,ELIANE CAVALCANTI ME OBJETIVA EVENTOS E LOCACOES,"314.633,20 ","314.633,20 "
198,18-2020,Ret 18-2020,FMAS - FUNDO MUNICIPAL DE ASSISTÊNCIA SOCIAL - FMAS,AQUISIÇÃO DE CONES EM PVC,"Secretaria Desenvolvimento Social, Juventude, Políticas sobre Drogas e Direitos Humanos",24/04/2020,18/10/2020,01.387.783/0001-70 ,"AQUARELA LIVRARIA E
PAPELARIA LTDA ME","35.700,00 ","35.700,00 "
199,19-2020,,FMAS - FUNDO MUNICIPAL DE ASSISTÊNCIA SOCIAL - FMAS,"SERVIÇO DE LOGÍSTICA, DISTRIBUIÇÃO E
TRANSPORTE DE CARGAS -COVID-19","Secretaria Desenvolvimento Social, Juventude, Políticas sobre Drogas e Direitos Humanos",30/04/2020,21/10/2020,12.222.192/0001-60 ,"SANDRA PATRICIA FERREIRA DE
QUEIROZ SHV TRANSPORTE","112.200,00 ","112.200,00 "
200,20-2020,,FMAS - FUNDO MUNICIPAL DE ASSISTÊNCIA SOCIAL - FMAS,"AQUISIÇÃO DE ÁGUA MINERAL (COPO) -
COVID-19","Secretaria Desenvolvimento Social, Juventude, Políticas sobre Drogas e Direitos Humanos",27/04/2020,22/10/2020,22.553.731/0001-05 ,"A S DE LIMA COMERCIO - AS
DISTRIBUIDORA","27.500,00 ","27.500,00 "
201,21-2020,Ret 21-2020,FMAS - FUNDO MUNICIPAL DE ASSISTÊNCIA SOCIAL - FMAS,VIGILÂNCIA ARMADA - COVID-19,"Secretaria Desenvolvimento Social, Juventude, Políticas sobre Drogas e Direitos Humanos",12/05/2020,22/05/2020,13.343.833/0001-05 ,"ALFORGE SEGURANCA
PATRIMONIAL LTDA - EPP","90.000,00 ","90.000,00 "
202,22-2020,,FMAS - FUNDO MUNICIPAL DE ASSISTÊNCIA SOCIAL - FMAS,AQUISIÇÃO DE LUVA DESCARTÁVEL,"Secretaria Desenvolvimento Social, Juventude, Políticas sobre Drogas e Direitos Humanos",27/05/2020,28/08/2020,34.333.903/0001-06 ,FL COMERCIO ATACADISTA DE ARTIGOS DE USO PESSOAL E DOMESTICO EIRELI,"40.000,00 ","40.000,00 "
203,23-2020,,FMAS - FUNDO MUNICIPAL DE ASSISTÊNCIA SOCIAL - FMAS,AQUISIÇÃO DE MÁSCARA DESCARTÁVEL - COVID-19,"Secretaria Desenvolvimento Social, Juventude, Políticas sobre Drogas e Direitos Humanos",08/06/2020,12/07/2020,34.333.903/0001-06 ,FL COMERCIO ATACADISTA DE ARTIGOS DE USO PESSOAL E DOMESTICO EIRELI,"300.000,00 ","300.000,00 "
204,24-2020,Ret 24-2020,FMAS - FUNDO MUNICIPAL DE ASSISTÊNCIA SOCIAL - FMAS,SERVIÇO DE LOGÍSTICA,"Secretaria Desenvolvimento Social, Juventude, Políticas sobre Drogas e Direitos Humanos",15/06/2020,05/08/2020,12.222.192/0001-60 ,SANDRA PATRICIA FERREIRA DE QUEIROZ SHV TRANSPORTE,"224.400,00 ","224.400,00 "
205,25-2020,,FMAS - FUNDO MUNICIPAL DE ASSISTÊNCIA SOCIAL - FMAS,SERVIÇO DE VIGILÂNCIA ARMADA - COVID -19,"Secretaria Desenvolvimento Social, Juventude, Políticas sobre Drogas e Direitos Humanos",29/06/2020,22/07/2020,13.343.833/0001-05 ,ALFORGE SEGURANCA PATRIMONIAL LTDA - EPP,"126.000,00 ","126.000,00 "
206,28-2020,,FMAS - FUNDO MUNICIPAL DE ASSISTÊNCIA SOCIAL - FMAS,Serviço de logistica- montagem e locação de equipamentos - ENFRENTAMENTO AO COVID-19,"Secretaria Desenvolvimento Social, Juventude, Políticas sobre Drogas e Direitos Humanos",30/06/2020,13/07/2020,02.860.590/0001-58 ,ELIANE CAVALCANTI ME OBJETIVA EVENTOS E LOCACOES,"443.250,00 ","443.250,00 "
207,29-2020,,FMAS - FUNDO MUNICIPAL DE ASSISTÊNCIA SOCIAL - FMAS,Alojamento ou Hospedagem e provisório para população adulta em situação de vulnerabilidade,"Secretaria Desenvolvimento Social, Juventude, Políticas sobre Drogas e Direitos Humanos",,,36.450.028/0001-78 ,CESAH - CENTRO ESPECIAL DE ACOLHIMENTO HUMANIZADO LTDA," 1.728.000,00 "," 1.728.000,00 "
208,12-2020,Ret 12-2020,FMDPI - FUNDO MUNICIPAL DOS DIREITOS DA PESSOA IDOSA,AQUISIÇÃO DE MÁSCARA DESCARTÁVEL - COVID 19,"Secretaria Desenvolvimento Social, Juventude, Políticas sobre Drogas e Direitos Humanos",27/04/2020,13/10/2020,27.058.274/0001-98 ,JATOBARRETTO CENTRO DE DISTRIBUICAO LTDA,"59.250,00 ","59.250,00 "
209,14-2020,Ret 14-2020,FMDPI - FUNDO MUNICIPAL DOS DIREITOS DA PESSOA IDOSA,AQUISIÇÃO DE LUVA DE PROCEDIMENTO,"Secretaria Desenvolvimento Social, Juventude, Políticas sobre Drogas e Direitos Humanos",16/04/2020,31/12/2020,41.102.195/0001-68 ,P R COMERCIAL MEDICA LTDA,"22.050,00 ","22.050,00 "
210,001-2020,,GABPE - GABINETE DE PROJETOS ESPECIAIS - ADMINISTRAÇÃO DIRETA,Aquisição de materiais médicos hospitalares,Município do Recife,20/05/2020,30/12/2020,27.058.274/0001-98 ,JATOBARRETTO CENTRO DE DISTRIBUICAO LTDA,"41.168,40 ","153.668,40 "
211,001-2020,,GABPE - GABINETE DE PROJETOS ESPECIAIS - ADMINISTRAÇÃO DIRETA,Aquisição de materiais médicos hospitalares,Município do Recife,20/05/2020,30/12/2020,28.767.740/0001-77 ,KARLA PATRICIA MONTEIRO LIMA,"112.500,00 ",
212,111-2020,Ret 111-2020,GABPE - GABINETE DE PROJETOS ESPECIAIS - ADMINISTRAÇÃO DIRETA,Serviço de Engenharia,Rede Municipal de Saúde/ Hospital Provisório do Recife- Imbiribeira,20/03/2020,08/05/2020,69.968.238/0001-01 ,J.C.L. ENGENHARIA LTDA,"4.218.800,50 ","4.218.800,50 "
213,112-2020,,GABPE - GABINETE DE PROJETOS ESPECIAIS - ADMINISTRAÇÃO DIRETA,Serviço de engenharia,Rede Municipal de Saúde/ Hospital Provisório do Recife- Coelhos,20/03/2020,08/05/2020,00.392.213/0001-06 ,PROCESSO ENGENHARIA LTDA,"5.631.003,48 ","5.631.003,48 "
214,113-2020,,GABPE - GABINETE DE PROJETOS ESPECIAIS - ADMINISTRAÇÃO DIRETA,Serviço de Engenharia,Rede Municipal de Saúde/ Hospital Provisório do Recife- Aurora,20/03/2020,08/05/2020,05.205.071/0001-44 ,ALCA ENGENHARIA LTDA,"3.355.133,93 ","3.355.133,93 "
215,5-2020,,SEDUC - SECRETARIA DE EDUCAÇÃO - ADMINISTRAÇÃO DIRETA,"AQUISIÇÃO DE MATERIAL DE LIMPEZA PARA ATENDER A REDE MUNICIPAL DE EDUCAÇÃO
EM VIRTUDE DO COVID-19.",Rede Municipal de Educação,30/03/2020,21/06/2020,05.449.553/0001-40 ,TUTTO LIMP DISTRIBUIDORA LTDA,"7.286.400,00 ","7.286.400,00 "
216,6-2020,,SEDUC - SECRETARIA DE EDUCAÇÃO - ADMINISTRAÇÃO DIRETA,"AQUISIÇÃO DE CESTAS BASICAS PARA
ATENDER A REDE MUNICIPAL DE EDUCAÇÃO EM VIRTUDE DO COVID-19.",Rede Municipal de Educação,30/03/2020,26/06/2020,05.938.234/0001-06 ,"N. PAES DE MELO JUNIOR
COMERCIO ME - MASTER
MERCANTIL","13.650.241,80 ","41.101.889,40 "
217,6-2020,,SEDUC - SECRETARIA DE EDUCAÇÃO - ADMINISTRAÇÃO DIRETA,"AQUISIÇÃO DE CESTAS BASICAS PARA
ATENDER A REDE MUNICIPAL DE EDUCAÇÃO EM VIRTUDE DO COVID-19.",Rede Municipal de Educação,30/03/2020,26/06/2020,13.789.804/0001-63 ,CONSUMA CONSULTORIA E COMERCIO LTDA,"27.451.647,60 ",
218,8-2020,Susp 8-2020,SEDUC - SECRETARIA DE EDUCAÇÃO - ADMINISTRAÇÃO DIRETA,PLATAFORMAS DIGITAIS GAMIFICADAS E INTERATIVAS COM CONTEUDOS LUDICOS PARA ATENDER A REDE MUNICIPAL DE ENSINO DECORRENTE AO COVID19.,Rede Municipal de Educação,-,09/10/2020,12.054.898/0001-60 ,JOY STREET SA, - , - 
219,1-2020,,SECRETARIA DE GOVERNO E PARTICIPAÇÃO SOCIAL - ADMINISTRAÇÃO DIRETA- SEGOV,SONORIZAÇÃO E PROPAGANDA VOLANTE ATRAVÉS DE BICICLETA DE SOM,Município do Recife,#N/D,02/05/2020,32.637.502/0001-14 ,ALEX SILVA DOS SANTOS 06630141407,"30.000,00 ","30.000,00 "
220,2-2020,,SEINFRA - SECRETARIA DE INFRAESTRUTURA - ADMINISTRAÇÃO DIRETA,CONTRATAÇÃO DE EMPRESA ESPECIALIZADA NO FORNECIMENTO DE ALCOOL EM GEL 70°,Secretaria Executiva de Defesa Civil,#N/D,30/04/2020,27.058.274/0001-98 ,JATOBARRETTO CENTRO DE DISTRIBUICAO LTDA,"50.000,00 ","50.000,00 "
221,3-2020,,SEINFRA - SECRETARIA DE INFRAESTRUTURA - ADMINISTRAÇÃO DIRETA,EMPRESA ESPECIALIZADA NO FORNECIMENTO DE MASCARAS KN95,Secretaria Executiva de Defesa Civil,14/04/2020,13/05/2020,08.140.532/0001-36 ,ATIVA PE COMERCIO E SERVICOS EIRELI ME,"23.100,00 ","23.100,00 "
222,4-2020,,SEINFRA - SECRETARIA DE INFRAESTRUTURA - ADMINISTRAÇÃO DIRETA,CONTRATAÇÃO EMPRESA ESPECIALIZADA PRESTAÇÃO SERVIÇOS POR MEIO DO USO E OPERAÇÃO ESPECIAL DE DRONE EM AÇÕES DE FISCALIZAÇÕES E MONITORAMENTO EM PONTOS ESPECIFICOS,Secretaria Executiva de Inovação Urbana,14/04/2020,13/09/2020,33.119.853/0001-04 ,ITEC PRODUCAO AUDIOVISUAL E PROPAGANDA LTDA,"300.000,00 ","300.000,00 "
